date,symbol,kai,quality,value,growth,momentum
date,symbol,kai,quality,value,growth,momentum
2017-05-04,SGMO,5,4,1,1,1
2017-05-04,SPP,8,2,6,8,2
2017-05-04,KOSS,8,7,8,5,3
2017-05-04,SPR,5,7,9,7,2
2017-05-04,SPU,9,2,6,1,1
2017-05-04,PHMD,1,7,5,4,1
2017-05-04,SPH,6,3,5,4,1
2017-05-04,DHXM,3,6,4,8,2
2017-05-04,SPN,8,1,2,1,1
2017-05-04,SPA,6,2,7,3,6
2017-05-04,SPB,5,5,6,8,2
2017-05-04,XPO,5,3,6,9,6
2017-05-04,JNS,3,9,8,4,8
2017-05-04,JNP,3,8,9,8,9
2017-05-04,JNJ,7,9,5,6,3
2017-05-04,BEN,9,9,9,3,7
2017-05-04,BEL,6,4,4,7,6
2017-05-04,BEP,6,1,6,1,7
2017-05-04,GHDX,2,7,2,7,7
2017-05-04,VNTV,4,3,3,6,3
2017-05-04,GRC,4,8,8,3,2
2017-05-04,GRA,2,7,3,4,6
2017-05-04,NOK,3,6,3,2,9
2017-05-04,HLT,6,6,5,5,8
2017-05-04,HLS,5,7,7,5,9
2017-05-04,NOA,8,2,8,5,2
2017-05-04,NOC,7,7,6,6,7
2017-05-04,HLF,2,8,7,3,9
2017-05-04,NOV,3,2,3,1,1
2017-05-04,NOW,5,2,1,3,9
2017-05-04,SYPR,9,2,8,1,3
2017-05-04,BWXT,5,7,4,4,8
2017-05-04,ENZ,9,9,8,9,9
2017-05-04,PTNR,3,4,8,3,2
2017-05-04,ARTW,8,3,7,1,4
2017-05-04,KTOS,4,2,2,1,4
2017-05-04,ARTX,5,4,4,3,9
2017-05-04,BFAM,3,3,3,7,8
2017-05-04,RLH,6,1,4,5,2
2017-05-04,ZBRA,1,2,4,4,7
2017-05-04,EDN,8,1,2,4,5
2017-05-04,SFUN,3,5,2,1,5
2017-05-04,EDU,8,9,4,5,8
2017-05-04,DPW,2,5,3,2,1
2017-05-04,ABAC,7,6,4,6,1
2017-05-04,DPS,9,8,4,7,2
2017-05-04,DPZ,6,9,3,8,4
2017-05-04,COHR,4,7,2,6,8
2017-05-04,ABAX,5,9,4,5,4
2017-05-04,COHU,1,7,6,8,8
2017-05-04,LE,7,4,3,1,9
2017-05-04,LB,2,9,8,4,9
2017-05-04,LL,8,5,3,1,1
2017-05-04,LM,3,6,7,6,8
2017-05-04,LH,9,6,7,4,3
2017-05-04,LQ,1,1,6,2,8
2017-05-04,A,9,8,4,7,8
2017-05-04,HEAR,3,5,2,3,8
2017-05-04,FRGI,1,8,5,4,7
2017-05-04,CNTY,3,6,8,7,9
2017-05-04,CFI,5,9,8,7,8
2017-05-04,PNR,7,4,4,4,7
2017-05-04,PNW,7,3,5,4,5
2017-05-04,PNK,9,2,4,3,8
2017-05-04,PNM,3,3,5,6,3
2017-05-04,CFX,4,5,5,2,7
2017-05-04,TRUP,3,5,2,9,9
2017-05-04,CBOE,3,9,2,4,7
2017-05-04,TRUE,8,7,2,8,9
2017-05-04,MRO,1,2,6,2,1
2017-05-04,DGSE,1,6,6,2,9
2017-05-04,MRC,7,3,6,2,3
2017-05-04,APT,2,9,9,8,9
2017-05-04,APU,5,4,6,6,2
2017-05-04,APH,7,8,4,5,6
2017-05-04,APO,7,7,9,6,8
2017-05-04,APC,1,1,3,2,1
2017-05-04,ORBC,6,3,2,3,4
2017-05-04,APA,1,2,3,3,2
2017-05-04,APD,7,7,7,5,8
2017-05-04,UCTT,8,5,4,7,9
2017-05-04,EMKR,5,9,4,9,3
2017-05-04,PAYX,7,9,4,6,4
2017-05-04,CSOD,6,1,2,8,8
2017-05-04,SLCA,7,3,2,1,1
2017-05-04,PAYC,9,6,2,9,9
2017-05-04,LANC,3,9,5,7,2
2017-05-04,DGII,6,8,9,7,8
2017-05-04,CRWS,5,9,9,7,3
2017-05-04,MDR,9,4,8,9,3
2017-05-04,SPAN,4,9,8,6,9
2017-05-04,RMGN,1,6,2,9,9
2017-05-04,DNKN,4,7,3,7,8
2017-05-04,SPAR,5,5,7,9,9
2017-05-04,ANSS,3,9,3,6,8
2017-05-04,BIIB,9,9,6,6,3
2017-05-04,PHIIK,8,3,6,1,1
2017-05-04,IMI,1,7,7,6,1
2017-05-04,OAKS,7,1,5,3,7
2017-05-04,VCO,3,6,8,7,2
2017-05-04,CLB,1,7,2,1,3
2017-05-04,SMIT,3,7,7,1,9
2017-05-04,TARO,1,9,9,7,4
2017-05-04,AIRI,8,2,3,1,2
2017-05-04,AIRT,2,6,3,8,3
2017-05-04,MDT,9,7,3,4,8
2017-05-04,AMSC,1,2,3,8,1
2017-05-04,LIVE,9,2,7,8,3
2017-05-04,LIVN,3,7,3,3,9
2017-05-04,YUMA,9,1,2,3,6
2017-05-04,YUME,3,7,7,5,5
2017-05-04,CSPI,8,8,3,9,7
2017-05-04,X,3,1,8,5,1
2017-05-04,BLIN,1,3,2,5,2
2017-05-04,PLCE,3,9,8,9,6
2017-05-04,SWKS,9,9,6,9,6
2017-05-04,GPOR,3,1,1,2,1
2017-05-04,SABR,2,4,4,4,9
2017-05-04,CTXS,9,7,5,8,8
2017-05-04,MGIC,4,8,8,2,2
2017-05-04,XRM,8,5,7,3,9
2017-05-04,XRX,9,4,8,3,2
2017-05-04,PSO,7,3,7,3,3
2017-05-04,KFRC,2,8,8,7,1
2017-05-04,INWK,5,5,5,8,9
2017-05-04,BCO,8,5,6,7,9
2017-05-04,HNI,5,8,7,5,6
2017-05-04,BCE,4,5,6,4,5
2017-05-04,TRNC,9,8,9,5,2
2017-05-04,BCC,4,5,9,3,7
2017-05-04,HNP,2,4,9,2,5
2017-05-04,TRNS,3,6,7,4,1
2017-05-04,BCR,9,8,2,6,9
2017-05-04,SRE,5,4,4,4,5
2017-05-04,SRI,8,6,9,8,9
2017-05-04,SRT,8,5,7,9,8
2017-05-04,NMR,6,7,4,1,5
2017-05-04,TDC,9,8,8,5,2
2017-05-04,LPSN,8,6,3,2,8
2017-05-04,TDG,9,6,3,6,9
2017-05-04,ITGR,8,2,4,4,2
2017-05-04,TDY,6,7,5,4,8
2017-05-04,DXLG,1,5,8,9,1
2017-05-04,TDS,2,6,8,2,3
2017-05-04,NMM,9,2,7,1,2
2017-05-04,TDW,4,1,3,1,1
2017-05-04,NOG,9,2,2,2,1
2017-05-04,LOW,7,9,7,8,8
2017-05-04,ADUS,7,7,5,5,9
2017-05-04,GUID,6,8,2,4,3
2017-05-04,TJX,7,9,7,6,7
2017-05-04,NTGR,7,8,9,7,2
2017-05-04,EBF,3,8,9,7,9
2017-05-04,RJF,6,5,8,6,5
2017-05-04,EBR,9,3,8,3,4
2017-05-04,EBS,1,9,5,4,8
2017-05-04,DRQ,2,9,8,1,2
2017-05-04,GLNG,8,1,1,1,2
2017-05-04,LFUS,5,7,3,5,8
2017-05-04,DRI,4,8,7,6,7
2017-05-04,GPRE,5,2,8,4,5
2017-05-04,GPRK,9,2,4,3,3
2017-05-04,DRD,4,6,9,2,1
2017-05-04,CONN,3,6,9,2,9
2017-05-04,CXW,5,5,7,5,8
2017-05-04,CXO,1,1,1,1,3
2017-05-04,CVEO,9,1,7,2,3
2017-05-04,OC,6,4,8,8,3
2017-05-04,AAON,4,9,3,8,8
2017-05-04,AAOI,2,7,4,9,1
2017-05-04,ENIA,4,8,9,2,2
2017-05-04,MLI,5,6,8,5,2
2017-05-04,NEPT,5,2,5,4,2
2017-05-04,JAZZ,4,8,4,6,9
2017-05-04,CAPR,6,4,1,5,8
2017-05-04,CAPL,5,1,6,5,4
2017-05-04,MLM,5,4,3,8,9
2017-05-04,CHDN,3,4,5,8,8
2017-05-04,AVX,6,8,9,7,6
2017-05-04,AVY,5,7,7,8,7
2017-05-04,AVT,8,5,4,4,1
2017-05-04,MPO,9,7,3,5,6
2017-05-04,AVP,9,7,6,5,9
2017-05-04,WOOF,5,3,3,6,4
2017-05-04,AVH,9,3,9,6,2
2017-05-04,AVD,5,6,8,4,5
2017-05-04,AVA,4,5,6,5,7
2017-05-04,MPX,8,9,6,8,9
2017-05-04,AXTI,9,6,8,9,9
2017-05-04,AXTA,4,4,5,7,2
2017-05-04,CEQP,9,1,7,4,2
2017-05-04,HLX,9,3,4,2,1
2017-05-04,NCMI,2,7,7,6,2
2017-05-04,ISIG,2,6,6,1,1
2017-05-04,KANG,1,4,3,1,5
2017-05-04,SLAB,8,8,4,6,3
2017-05-04,REGN,9,9,2,6,8
2017-05-04,DEO,4,7,3,3,6
2017-05-04,E,4,2,6,3,2
2017-05-04,MLHR,3,8,8,8,9
2017-05-04,GOGO,7,5,2,8,8
2017-05-04,GOGL,3,1,2,3,1
2017-05-04,EVTC,4,7,6,5,2
2017-05-04,AJRD,4,2,7,8,6
2017-05-04,IPXL,8,1,2,1,8
2017-05-04,SPGI,7,9,5,8,8
2017-05-04,ARTNA,6,2,3,5,9
2017-05-04,CCOI,3,6,3,5,4
2017-05-04,VAL,3,7,4,5,6
2017-05-04,VAC,7,8,8,8,9
2017-05-04,VAR,9,9,5,4,5
2017-05-04,PSTI,1,2,1,9,3
2017-05-04,LRCX,9,8,7,9,9
2017-05-04,LMT,5,6,6,6,4
2017-05-04,WNRL,2,6,7,9,4
2017-05-04,HMTV,3,7,6,9,2
2017-05-04,VCEL,1,4,2,8,3
2017-05-04,SGRY,8,1,6,5,1
2017-05-04,SGRP,3,7,8,2,2
2017-05-04,UVV,3,7,9,3,4
2017-05-04,FNGN,1,8,2,2,7
2017-05-04,PCLN,9,9,2,4,8
2017-05-04,LITE,2,6,3,7,1
2017-05-04,BRFS,8,3,4,1,8
2017-05-04,DIOD,3,5,7,3,5
2017-05-04,ARII,2,8,9,3,2
2017-05-04,MD,2,8,7,4,1
2017-05-04,MG,3,7,7,8,9
2017-05-04,RWC,5,8,9,8,6
2017-05-04,MA,7,9,3,7,8
2017-05-04,ALOG,6,8,8,4,4
2017-05-04,MB,9,7,1,9,9
2017-05-04,MO,7,6,4,6,3
2017-05-04,MN,1,9,5,7,3
2017-05-04,MU,1,4,4,3,3
2017-05-04,MT,9,1,9,9,1
2017-05-04,ALOT,3,9,9,8,6
2017-05-04,MX,9,5,4,9,1
2017-05-04,DOX,5,8,6,4,5
2017-05-04,COST,4,8,6,6,8
2017-05-04,DOV,7,6,6,2,2
2017-05-04,DOW,9,5,6,2,3
2017-05-04,SWIR,3,6,6,9,2
2017-05-04,MSON,4,8,2,6,4
2017-05-04,POWL,4,7,9,2,4
2017-05-04,GIFI,4,4,9,7,2
2017-05-04,HSY,7,8,3,4,3
2017-05-04,INUV,8,7,4,3,6
2017-05-04,CIEN,3,6,7,9,4
2017-05-04,ITCI,3,3,5,2,1
2017-05-04,BAX,7,8,5,7,8
2017-05-04,BAA,9,1,5,4,1
2017-05-04,BAM,4,1,6,2,7
2017-05-04,BAK,9,6,9,9,7
2017-05-04,BAH,5,8,7,6,6
2017-05-04,KND,8,3,5,2,9
2017-05-04,STE,2,6,4,3,9
2017-05-04,RXII,1,1,5,1,1
2017-05-04,NEOG,7,9,2,4,4
2017-05-04,STB,5,2,4,5,3
2017-05-04,STM,6,6,4,8,8
2017-05-04,STN,3,6,7,2,3
2017-05-04,STO,4,3,5,2,2
2017-05-04,NEON,1,5,1,9,3
2017-05-04,STV,1,8,5,1,9
2017-05-04,STS,7,9,9,9,3
2017-05-04,STX,2,8,8,2,2
2017-05-04,STZ,7,5,3,7,8
2017-05-04,NCR,5,3,8,6,2
2017-05-04,NCS,6,5,6,9,9
2017-05-04,NCI,8,6,8,4,3
2017-05-04,TFX,6,8,3,6,9
2017-05-04,FNV,8,7,2,6,4
2017-05-04,LLIT,1,1,6,2,3
2017-05-04,LII,6,8,5,8,5
2017-05-04,NEM,2,3,6,5,2
2017-05-04,PDEX,4,8,9,9,8
2017-05-04,DLHC,6,5,8,9,1
2017-05-04,RGEN,7,7,2,3,8
2017-05-04,QGEN,3,5,2,3,9
2017-05-04,ACH,3,1,8,7,2
2017-05-04,BASI,8,2,6,1,9
2017-05-04,RHP,2,2,5,8,7
2017-05-04,KAI,7,8,7,5,9
2017-05-04,RHT,9,8,3,7,6
2017-05-04,RHI,7,9,8,6,6
2017-05-04,KAR,6,4,5,6,5
2017-05-04,ALRM,8,9,2,5,8
2017-05-04,ABEV,5,9,3,3,5
2017-05-04,FCFS,7,8,7,2,9
2017-05-04,COLM,2,9,8,8,3
2017-05-04,ABEO,9,2,1,1,8
2017-05-04,BMRA,7,7,2,1,9
2017-05-04,HFC,1,4,7,2,3
2017-05-04,NEU,4,9,5,6,7
2017-05-04,EVOL,2,9,8,7,8
2017-05-04,OXY,1,1,3,2,2
2017-05-04,AEIS,8,8,4,8,9
2017-05-04,OXM,2,8,8,5,8
2017-05-04,YELP,8,8,3,9,8
2017-05-04,CZR,9,5,3,3,9
2017-05-04,CVGI,9,4,9,6,9
2017-05-04,ATO,5,5,4,7,5
2017-05-04,ATI,7,1,3,1,2
2017-05-04,ATV,7,2,2,1,9
2017-05-04,ATW,9,8,9,2,1
2017-05-04,ATU,4,4,5,3,8
2017-05-04,ATR,2,8,6,5,8
2017-05-04,MERC,2,6,9,7,3
2017-05-04,CVGW,2,7,5,9,8
2017-05-04,ENOC,3,3,2,4,1
2017-05-04,HTGC,7,7,4,4,6
2017-05-04,TTEC,2,7,6,2,8
2017-05-04,TTEK,5,5,6,8,9
2017-05-04,LSCC,8,3,3,5,2
2017-05-04,CARB,6,7,2,9,8
2017-05-04,OREX,1,1,4,8,9
2017-05-04,CARA,1,2,1,1,1
2017-05-04,LBTYA,1,1,6,7,3
2017-05-04,LBTYB,1,1,5,7,5
2017-05-04,LBTYK,1,1,6,5,3
2017-05-04,NANO,9,7,7,9,1
2017-05-04,SJR,5,6,5,2,6
2017-05-04,LMNX,5,9,4,5,9
2017-05-04,LMNR,7,1,4,8,1
2017-05-04,AZPN,1,8,3,9,3
2017-05-04,GTLS,8,5,8,4,8
2017-05-04,ZAGG,3,3,6,1,9
2017-05-04,SJM,9,5,6,5,2
2017-05-04,GILT,8,3,7,6,7
2017-05-04,PRAA,2,7,6,2,8
2017-05-04,FPRX,3,5,1,1,1
2017-05-04,KMX,2,5,5,5,8
2017-05-04,SPEX,1,1,3,9,3
2017-05-04,LNDC,8,5,7,3,9
2017-05-04,CGIX,1,2,1,9,9
2017-05-04,IIJI,7,6,8,2,2
2017-05-04,GWRE,3,8,2,3,7
2017-05-04,PMTS,2,7,8,6,1
2017-05-04,HQCL,7,2,8,9,1
2017-05-04,SDRL,8,5,9,4,1
2017-05-04,CCMP,6,9,5,5,8
2017-05-04,VGR,4,7,5,9,8
2017-05-04,AINV,4,6,7,4,5
2017-05-04,MKTX,9,9,2,8,5
2017-05-04,WWE,6,7,5,9,2
2017-05-04,WWD,6,6,5,4,3
2017-05-04,QADA,9,8,4,1,9
2017-05-04,AMOT,2,7,7,8,8
2017-05-04,FSC,8,1,8,3,3
2017-05-04,FSI,5,9,9,9,2
2017-05-04,FSM,9,5,4,1,1
2017-05-04,RELV,8,7,8,4,9
2017-05-04,FSS,3,8,7,3,9
2017-05-04,AMWD,2,9,7,9,8
2017-05-04,ZTS,3,8,2,8,8
2017-05-04,NYMX,6,5,1,1,9
2017-05-04,PLOW,8,6,7,5,8
2017-05-04,BLMN,2,5,5,3,9
2017-05-04,RDCM,8,8,3,9,1
2017-05-04,DIN,1,6,7,4,3
2017-05-04,RECN,4,9,9,6,1
2017-05-04,INSG,6,5,2,4,1
2017-05-04,DIT,9,8,9,3,4
2017-05-04,JHX,4,8,3,8,8
2017-05-04,DIS,7,8,5,7,3
2017-05-04,PDCE,7,2,2,1,1
2017-05-04,VIPS,4,1,5,8,8
2017-05-04,I,1,4,5,5,1
2017-05-04,UTI,9,6,5,1,8
2017-05-04,UTL,3,4,6,6,8
2017-05-04,IRM,7,2,3,3,3
2017-05-04,UTX,5,6,6,4,8
2017-05-04,ESES,7,1,1,4,9
2017-05-04,AUMN,1,3,1,9,1
2017-05-04,ASYS,9,5,5,9,9
2017-05-04,NUTR,5,8,9,6,5
2017-05-04,PWE,9,1,6,1,1
2017-05-04,DXCM,8,6,1,8,1
2017-05-04,ESEA,2,1,5,3,6
2017-05-04,HBM,8,2,8,9,1
2017-05-04,HBI,9,6,7,8,6
2017-05-04,LTRPA,2,4,8,7,9
2017-05-04,COP,1,2,3,2,2
2017-05-04,NAV,9,6,6,8,8
2017-05-04,CIGI,5,8,7,9,9
2017-05-04,HBP,6,7,9,9,1
2017-05-04,COT,7,1,5,4,8
2017-05-04,PRFT,3,8,8,3,6
2017-05-04,SAFM,6,9,9,7,9
2017-05-04,SVA,2,6,2,7,3
2017-05-04,HOFT,4,8,8,7,9
2017-05-04,SVU,7,6,9,3,9
2017-05-04,AMRK,9,2,6,3,5
2017-05-04,GXP,5,4,8,5,3
2017-05-04,FLY,1,2,6,1,3
2017-05-04,MTRN,6,6,8,4,5
2017-05-04,CPHI,9,1,6,7,3
2017-05-04,COG,1,4,2,1,3
2017-05-04,FLS,2,7,4,1,8
2017-05-04,FLR,4,5,9,1,3
2017-05-04,FLT,7,4,3,5,2
2017-05-04,CPHC,4,9,9,9,3
2017-05-04,FLL,9,3,8,3,2
2017-05-04,FLO,1,7,7,3,2
2017-05-04,GMLP,8,4,8,4,3
2017-05-04,FONR,7,9,9,8,9
2017-05-04,LKQ,9,6,7,5,9
2017-05-04,CACC,4,8,8,5,9
2017-05-04,BRKS,6,7,3,8,9
2017-05-04,COO,4,6,3,5,5
2017-05-04,KCG,8,6,8,8,9
2017-05-04,RTEC,9,9,8,9,8
2017-05-04,GLBS,9,1,2,1,1
2017-05-04,FLDM,9,2,1,1,5
2017-05-04,NI,5,3,4,6,6
2017-05-04,NL,8,5,6,6,9
2017-05-04,NM,1,1,3,3,1
2017-05-04,NC,7,5,9,5,9
2017-05-04,NE,1,1,6,1,1
2017-05-04,NX,3,2,7,6,8
2017-05-04,NP,8,7,7,7,7
2017-05-04,NQ,8,2,6,1,2
2017-05-04,NR,8,2,3,2,2
2017-05-04,NS,3,4,6,7,1
2017-05-04,DRAD,2,6,8,7,2
2017-05-04,DRAM,1,4,6,5,3
2017-05-04,ICON,6,1,3,2,3
2017-05-04,OZM,7,6,1,2,8
2017-05-04,SPXC,8,2,4,8,5
2017-05-04,IPAR,7,9,7,6,8
2017-05-04,IPAS,8,7,2,7,9
2017-05-04,AZN,5,6,3,6,3
2017-05-04,AZO,1,7,6,6,4
2017-05-04,AZZ,4,6,6,2,4
2017-05-04,GDEN,5,2,6,3,9
2017-05-04,TTGT,7,8,4,7,5
2017-05-04,JONE,9,1,2,1,1
2017-05-04,SCYX,1,1,5,3,4
2017-05-04,AHPI,1,5,7,5,1
2017-05-04,TKC,3,6,8,2,5
2017-05-04,CATM,7,6,7,8,2
2017-05-04,CATO,1,9,9,2,9
2017-05-04,PSMT,3,8,6,4,2
2017-05-04,SSYS,2,3,3,5,9
2017-05-04,WRLD,8,9,9,3,9
2017-05-04,OIIM,7,7,6,8,6
2017-05-04,MDRX,1,1,3,7,2
2017-05-04,CSIQ,2,3,7,2,9
2017-05-04,CSII,3,7,2,6,8
2017-05-04,PACD,7,2,8,3,1
2017-05-04,PACB,2,3,1,7,1
2017-05-04,USEG,1,1,2,2,9
2017-05-04,DLB,7,9,6,5,3
2017-05-04,GWPH,1,3,1,1,2
2017-05-04,APOG,4,8,7,9,2
2017-05-04,TGNA,7,7,7,7,3
2017-05-04,CRESY,9,1,9,1,4
2017-05-04,FICO,5,8,3,6,8
2017-05-04,VEC,1,7,9,1,9
2017-05-04,UNFI,3,6,9,3,2
2017-05-04,GNCA,1,2,1,1,9
2017-05-04,YRCW,7,8,9,9,6
2017-05-04,EEFT,6,7,6,7,3
2017-05-04,IRBT,7,9,4,7,9
2017-05-04,CUDA,9,8,3,9,1
2017-05-04,TAYD,2,8,7,5,2
2017-05-04,RAIL,2,7,5,7,8
2017-05-04,ALKS,4,5,1,6,4
2017-05-04,RSG,4,3,4,4,5
2017-05-04,RST,7,8,2,5,9
2017-05-04,BLKB,3,4,2,5,7
2017-05-04,CDZI,1,2,1,8,8
2017-05-04,NUVA,5,6,2,8,3
2017-05-04,DKS,7,8,9,3,7
2017-05-04,FORTY,9,8,9,4,3
2017-05-04,REED,1,3,2,1,1
2017-05-04,GPIC,4,8,7,7,4
2017-05-04,KALV,7,4,1,1,1
2017-05-04,DKL,1,6,7,7,3
2017-05-04,SXCP,8,5,8,5,8
2017-05-04,URI,7,9,7,6,1
2017-05-04,FNCX,1,1,1,4,9
2017-05-04,IPG,5,5,7,7,3
2017-05-04,IPI,7,1,3,1,4
2017-05-04,NGG,4,3,7,5,7
2017-05-04,HDS,5,8,6,7,3
2017-05-04,HDP,1,3,1,9,2
2017-05-04,NGL,9,2,3,1,1
2017-05-04,RILY,6,9,9,9,2
2017-05-04,NGS,3,8,7,2,7
2017-05-04,TITN,2,3,9,5,4
2017-05-04,BMS,3,5,8,5,1
2017-05-04,BMY,9,9,4,9,6
2017-05-04,SHW,9,9,5,8,9
2017-05-04,UTHR,3,9,9,9,3
2017-05-04,SHI,5,7,9,9,3
2017-05-04,POST,5,2,5,6,2
2017-05-04,SHO,4,6,6,5,6
2017-05-04,MGA,4,7,9,7,7
2017-05-04,MGI,9,2,5,4,8
2017-05-04,MGM,6,1,5,8,9
2017-05-04,TBI,1,6,8,3,7
2017-05-04,OTEL,1,7,9,3,9
2017-05-04,LUV,7,7,8,8,9
2017-05-04,LUX,1,8,4,6,8
2017-05-04,LUB,4,6,5,2,2
2017-05-04,OTEX,4,7,5,7,6
2017-05-04,LUK,4,2,5,2,3
2017-05-04,CLRO,2,9,8,2,9
2017-05-04,KEN,9,1,4,2,9
2017-05-04,KEM,8,3,7,8,8
2017-05-04,RYAM,8,4,9,2,4
2017-05-04,KEX,2,5,7,2,3
2017-05-04,KEP,5,3,9,7,2
2017-05-04,CWCO,7,7,5,2,6
2017-05-04,MATR,6,5,1,3,1
2017-05-04,ACCO,8,5,8,6,6
2017-05-04,DMRC,6,4,1,1,8
2017-05-04,M,1,7,9,2,5
2017-05-04,ICAD,6,5,1,5,6
2017-05-04,AEMD,1,3,1,4,2
2017-05-04,TESO,1,3,7,1,1
2017-05-04,IPCI,1,4,1,3,1
2017-05-04,LGIH,9,8,8,8,1
2017-05-04,AMSWA,6,9,6,3,8
2017-05-04,NKTR,7,2,1,3,1
2017-05-04,FUEL,6,5,5,7,9
2017-05-04,TESS,2,8,9,2,2
2017-05-04,AXU,4,3,1,2,1
2017-05-04,CVCO,3,7,6,7,7
2017-05-04,AXE,3,6,9,3,7
2017-05-04,AXN,8,4,5,8,1
2017-05-04,AXL,7,5,9,8,2
2017-05-04,ENSV,9,1,3,1,2
2017-05-04,DVCR,6,4,4,7,6
2017-05-04,ENSG,2,6,7,3,8
2017-05-04,CAVM,2,2,1,1,3
2017-05-04,CHNR,8,2,1,1,3
2017-05-04,NWSA,5,4,8,4,3
2017-05-04,CSGS,3,8,7,7,3
2017-05-04,CENX,2,1,4,1,9
2017-05-04,CSGP,4,8,2,9,9
2017-05-04,PAAS,8,5,6,9,1
2017-05-04,MCHX,9,7,6,1,5
2017-05-04,SXI,7,8,7,4,2
2017-05-04,MCHP,9,5,2,5,7
2017-05-04,FTD,1,2,6,3,7
2017-05-04,REXX,1,1,2,2,2
2017-05-04,APAM,1,7,9,8,8
2017-05-04,OPTT,1,2,5,2,1
2017-05-04,MLNK,9,3,7,1,2
2017-05-04,PYDS,5,4,4,5,9
2017-05-04,MLNX,2,6,5,7,1
2017-05-04,HYH,5,3,7,4,3
2017-05-04,WSM,2,9,9,5,3
2017-05-04,WSO,5,9,8,6,3
2017-05-04,WST,6,8,2,7,9
2017-05-04,PGNX,6,6,4,9,1
2017-05-04,EMITF,9,2,6,2,3
2017-05-04,MPAA,2,8,6,5,7
2017-05-04,SBLK,6,1,2,2,1
2017-05-04,HMNY,9,2,2,1,2
2017-05-04,AGTC,6,4,4,9,1
2017-05-04,CLMT,8,1,3,2,1
2017-05-04,OCIP,2,3,3,1,1
2017-05-04,BGSF,9,8,8,8,9
2017-05-04,CCIH,7,1,7,1,1
2017-05-04,JJSF,3,9,5,5,2
2017-05-04,ON,5,3,6,3,2
2017-05-04,OI,8,3,8,3,8
2017-05-04,MGRC,8,6,8,4,9
2017-05-04,CDXS,6,7,2,8,2
2017-05-04,OA,1,5,7,6,7
2017-05-04,FC,5,8,4,3,6
2017-05-04,NTRI,8,9,3,9,1
2017-05-04,CDXC,1,4,1,9,9
2017-05-04,INOV,1,8,5,2,2
2017-05-04,FF,4,8,9,2,9
2017-05-04,INOD,7,5,3,4,7
2017-05-04,DEL,5,4,2,3,6
2017-05-04,REGI,8,3,9,3,4
2017-05-04,FN,6,6,8,5,1
2017-05-04,SNHY,1,8,3,1,9
2017-05-04,UPS,2,8,5,3,5
2017-05-04,IVC,1,5,3,3,9
2017-05-04,IVZ,9,5,6,3,8
2017-05-04,NEO,4,4,2,4,3
2017-05-04,KOPN,5,4,1,4,8
2017-05-04,NEE,4,4,4,6,7
2017-05-04,ACN,9,9,6,6,6
2017-05-04,ACM,4,1,8,3,2
2017-05-04,ACU,7,7,9,7,3
2017-05-04,ACY,9,3,8,2,2
2017-05-04,JCTCF,8,9,8,7,2
2017-05-04,BKD,7,1,4,4,4
2017-05-04,BKE,2,9,9,2,9
2017-05-04,BKH,6,1,3,5,4
2017-05-04,BKS,6,6,7,6,2
2017-05-04,GILD,6,9,8,8,4
2017-05-04,DGAS,6,6,5,5,3
2017-05-04,SJW,7,6,5,7,5
2017-05-04,SJI,5,4,4,8,6
2017-05-04,MSEX,4,4,4,6,4
2017-05-04,QUAD,9,2,9,7,9
2017-05-04,MDP,6,7,6,2,1
2017-05-04,ACHC,1,6,4,4,7
2017-05-04,MED,8,9,6,3,7
2017-05-04,MEI,5,9,9,8,1
2017-05-04,CPLP,2,4,9,4,3
2017-05-04,CPLA,8,9,7,6,9
2017-05-04,PDCO,9,6,7,2,3
2017-05-04,DLNG,7,7,8,4,1
2017-05-04,KGC,8,2,8,9,7
2017-05-04,CPK,4,5,4,6,7
2017-05-04,CPL,9,3,7,1,3
2017-05-04,CPN,9,1,9,3,1
2017-05-04,CPA,8,7,7,4,9
2017-05-04,CPB,7,7,5,3,4
2017-05-04,CPE,8,3,2,3,1
2017-05-04,CPG,3,1,3,1,1
2017-05-04,TYL,6,8,2,7,9
2017-05-04,CPS,7,5,9,8,8
2017-05-04,EVAR,8,1,1,4,1
2017-05-04,KTEC,8,6,7,5,5
2017-05-04,ICCC,3,7,6,6,5
2017-05-04,TEUM,9,6,1,3,4
2017-05-04,UEPS,6,9,9,7,2
2017-05-04,AAWW,4,4,6,7,3
2017-05-04,ANFI,5,7,9,6,2
2017-05-04,DVAX,1,2,1,5,4
2017-05-04,JNPR,9,7,8,6,9
2017-05-04,HIMX,2,8,9,5,1
2017-05-04,MXL,4,8,4,9,3
2017-05-04,MXC,9,2,5,1,3
2017-05-04,AWR,2,4,4,4,7
2017-05-04,NATR,9,8,7,2,1
2017-05-04,BONT,2,5,6,2,9
2017-05-04,NATI,1,9,3,4,8
2017-05-04,NATH,9,9,4,8,9
2017-05-04,RUBI,1,5,4,5,5
2017-05-04,PAGP,9,1,8,4,2
2017-05-04,PLPC,7,7,8,5,6
2017-05-04,ASCMA,7,2,6,3,5
2017-05-04,LYTS,2,8,8,8,2
2017-05-04,USAK,6,3,5,3,1
2017-05-04,DECK,3,9,7,3,8
2017-05-04,USAC,9,2,5,5,2
2017-05-04,XPLR,1,5,3,4,2
2017-05-04,USAP,7,1,6,6,8
2017-05-04,USAT,7,7,3,1,9
2017-05-04,PCYG,2,6,1,7,2
2017-05-04,PCYO,1,2,1,2,9
2017-05-04,CMLS,9,1,5,3,1
2017-05-04,XON,1,3,1,7,9
2017-05-04,PXLW,9,7,2,4,9
2017-05-04,BAS,9,1,2,1,1
2017-05-04,CRAY,2,7,6,2,1
2017-05-04,CRAI,9,7,9,5,7
2017-05-04,NOAH,4,9,8,7,3
2017-05-04,OHAI,1,1,8,3,2
2017-05-04,VIV,9,7,7,5,5
2017-05-04,EXFO,7,8,9,8,5
2017-05-04,DPLO,3,4,6,7,9
2017-05-04,HCHC,9,1,7,5,1
2017-05-04,STAY,3,4,6,4,9
2017-05-04,STAF,2,2,3,9,8
2017-05-04,STAA,5,6,2,2,8
2017-05-04,FUN,3,7,5,7,7
2017-05-04,FUL,6,6,7,5,8
2017-05-04,Q,4,4,4,3,8
2017-05-04,HSON,1,7,3,6,9
2017-05-04,KNOP,7,2,8,8,6
2017-05-04,WIFI,8,1,2,2,8
2017-05-04,XOXO,5,9,7,8,7
2017-05-04,ALGT,2,8,8,8,2
2017-05-04,ALGN,8,9,2,8,9
2017-05-04,ESCA,4,7,9,4,2
2017-05-04,JBT,9,5,3,7,8
2017-05-04,NURO,5,5,7,8,1
2017-05-04,JBL,6,3,9,4,5
2017-05-04,XOM,1,4,5,1,4
2017-05-04,FCSC,1,2,4,8,8
2017-05-04,DGI,8,2,5,8,2
2017-05-04,DGX,7,7,6,3,9
2017-05-04,UNP,7,6,5,4,7
2017-05-04,UNT,9,1,6,2,1
2017-05-04,MTOR,9,4,8,9,7
2017-05-04,UNF,7,9,8,4,4
2017-05-04,UNH,9,5,6,6,8
2017-05-04,OMC,5,4,7,4,2
2017-05-04,VIVE,1,3,1,9,9
2017-05-04,OME,6,8,9,6,7
2017-05-04,ITI,9,8,3,4,2
2017-05-04,ITG,1,7,3,2,5
2017-05-04,OMI,3,7,9,4,2
2017-05-04,OMN,6,4,7,6,2
2017-05-04,VIVO,5,9,7,3,9
2017-05-04,ITW,7,9,4,7,8
2017-05-04,ITT,2,8,7,3,8
2017-05-04,AAC,2,5,3,3,1
2017-05-04,AAL,7,7,7,7,8
2017-05-04,AAN,2,8,9,8,9
2017-05-04,AAV,7,3,3,2,1
2017-05-04,DXTR,1,1,1,8,1
2017-05-04,BIO,5,6,3,1,9
2017-05-04,BID,8,6,4,2,8
2017-05-04,TTPH,1,3,5,1,1
2017-05-04,BIP,7,2,3,3,6
2017-05-04,HOLX,7,5,3,8,8
2017-05-04,RDY,2,8,3,4,3
2017-05-04,SLW,9,5,3,2,1
2017-05-04,SLP,3,9,2,6,9
2017-05-04,HOLI,6,8,9,6,3
2017-05-04,CYBE,9,8,7,9,1
2017-05-04,POOL,7,8,4,8,6
2017-05-04,MCO,9,9,2,2,8
2017-05-04,MCK,1,5,9,6,2
2017-05-04,MCD,7,8,3,6,9
2017-05-04,MCC,7,6,8,3,4
2017-05-04,GFI,9,2,9,5,1
2017-05-04,GFN,9,3,7,2,6
2017-05-04,MCS,7,3,5,7,8
2017-05-04,EXC,7,2,6,3,2
2017-05-04,EXA,6,6,2,9,7
2017-05-04,EXK,9,6,6,4,1
2017-05-04,EXP,6,7,6,8,7
2017-05-04,MELI,9,8,2,4,9
2017-05-04,DLPH,4,7,7,6,9
2017-05-04,FBHS,9,7,5,8,8
2017-05-04,FBR,2,3,5,5,2
2017-05-04,XLNX,9,9,4,5,9
2017-05-04,IESC,8,7,8,9,9
2017-05-04,CRR,9,2,2,1,1
2017-05-04,CRS,6,2,7,2,4
2017-05-04,CRY,9,7,3,6,9
2017-05-04,CRC,4,3,5,2,1
2017-05-04,CRK,9,1,1,2,1
2017-05-04,CRH,6,5,8,9,8
2017-05-04,CRI,2,9,7,8,7
2017-05-04,CRL,4,5,5,6,6
2017-05-04,CRM,9,3,2,7,8
2017-05-04,CLBS,9,1,1,9,8
2017-05-04,PQ,9,3,1,3,1
2017-05-04,ABMD,7,9,2,8,8
2017-05-04,GLDD,3,2,6,2,9
2017-05-04,PF,6,3,4,6,4
2017-05-04,PG,5,8,4,5,2
2017-05-04,PH,2,8,6,3,4
2017-05-04,PN,3,2,9,5,3
2017-05-04,PM,7,8,4,4,3
2017-05-04,KTCC,9,3,9,3,2
2017-05-04,RMTI,2,4,1,3,9
2017-05-04,IPGP,3,9,4,6,9
2017-05-04,SPRT,4,5,6,1,2
2017-05-04,CNXN,5,8,9,6,3
2017-05-04,EVGN,2,3,5,1,6
2017-05-04,IDSA,1,1,3,6,1
2017-05-04,CNXR,8,5,1,6,1
2017-05-04,FRSH,2,3,4,4,3
2017-05-04,IDSY,3,4,2,8,8
2017-05-04,OPK,1,3,2,9,3
2017-05-04,SCSS,2,9,7,5,9
2017-05-04,GDOT,5,8,6,5,7
2017-05-04,ANDE,6,2,6,5,2
2017-05-04,SCSC,5,6,9,5,7
2017-05-04,RYAAY,6,8,6,9,9
2017-05-04,HAYN,7,4,8,1,8
2017-05-04,CHRW,7,8,7,7,2
2017-05-04,UFPT,4,8,8,3,8
2017-05-04,CHRS,1,6,1,9,4
2017-05-04,GRFS,3,6,4,3,9
2017-05-04,SBUX,9,9,3,9,7
2017-05-04,JRJC,6,7,7,3,1
2017-05-04,TLGT,4,4,1,7,8
2017-05-04,JRJR,8,5,2,7,9
2017-05-04,PTCT,3,4,1,7,9
2017-05-04,PSX,1,6,6,3,6
2017-05-04,AMBR,9,4,1,7,9
2017-05-04,SHEN,5,1,2,2,9
2017-05-04,AMBA,9,9,5,5,8
2017-05-04,MSG,7,3,3,1,4
2017-05-04,ASUR,1,2,2,7,6
2017-05-04,ACST,4,2,1,1,2
2017-05-04,USCR,3,3,6,8,3
2017-05-04,HNH,9,5,7,2,3
2017-05-04,APEI,1,9,9,2,7
2017-05-04,NAVB,7,5,2,9,3
2017-05-04,ISCA,7,6,8,6,2
2017-05-04,CRCM,7,8,3,9,9
2017-05-04,BERY,5,2,6,8,9
2017-05-04,LABL,6,4,6,6,9
2017-05-04,CNX,9,2,5,1,1
2017-05-04,VOD,2,3,6,1,6
2017-05-04,VNET,1,1,3,1,3
2017-05-04,IMDZ,1,2,5,8,1
2017-05-04,STON,3,1,3,1,9
2017-05-04,IRDM,3,7,7,6,8
2017-05-04,ELTK,3,2,4,1,7
2017-05-04,RSYS,6,6,5,8,7
2017-05-04,MINI,1,3,6,8,2
2017-05-04,FE,2,1,3,1,1
2017-05-04,MIND,4,2,6,1,2
2017-05-04,CIG,9,5,8,1,2
2017-05-04,CIR,6,4,4,2,9
2017-05-04,CIX,6,9,9,8,4
2017-05-04,DAC,4,1,6,1,4
2017-05-04,WMLP,9,2,7,9,1
2017-05-04,DAN,3,4,9,6,9
2017-05-04,PETS,7,9,6,6,9
2017-05-04,ULH,2,6,7,2,8
2017-05-04,MACK,7,7,1,9,6
2017-05-04,CY,9,1,2,3,3
2017-05-04,AGN,8,4,2,8,6
2017-05-04,AGI,9,3,4,3,1
2017-05-04,NYT,2,8,5,3,9
2017-05-04,ERII,3,5,2,9,3
2017-05-04,AGU,6,4,8,2,2
2017-05-04,BWP,7,2,6,5,3
2017-05-04,SCLN,7,9,8,8,4
2017-05-04,BWA,4,5,6,2,8
2017-05-04,ITUS,1,3,1,2,1
2017-05-04,CTLT,3,4,3,4,7
2017-05-04,MXPT,4,6,7,5,9
2017-05-04,MAS,9,9,6,8,9
2017-05-04,SNE,8,4,7,6,8
2017-05-04,SNA,7,8,7,8,6
2017-05-04,SNN,2,8,5,6,8
2017-05-04,HIVE,4,6,2,8,1
2017-05-04,SNI,9,8,7,5,1
2017-05-04,XRAY,9,6,3,4,7
2017-05-04,ACLS,1,7,4,7,8
2017-05-04,SNP,4,6,9,7,3
2017-05-04,SNX,4,5,8,8,3
2017-05-04,MAN,1,8,9,8,8
2017-05-04,EVI,1,8,2,6,9
2017-05-04,EVK,8,8,5,4,9
2017-05-04,EVC,1,7,6,3,2
2017-05-04,DSWL,6,4,5,1,3
2017-05-04,EVR,5,9,8,8,3
2017-05-04,GAIA,9,8,2,2,9
2017-05-04,SLRC,8,9,8,3,2
2017-05-04,KKR,3,4,2,7,7
2017-05-04,CTS,7,8,8,9,9
2017-05-04,SPPI,8,3,1,2,7
2017-05-04,IFON,4,5,7,1,9
2017-05-04,CTG,1,6,4,1,9
2017-05-04,CTB,3,8,9,8,1
2017-05-04,CST,7,7,8,9,4
2017-05-04,CTL,5,1,8,4,8
2017-05-04,MOBL,1,6,2,7,7
2017-05-04,ORBK,7,8,8,8,8
2017-05-04,LOV,9,6,2,5,9
2017-05-04,EVEP,9,1,6,2,1
2017-05-04,ORA,6,6,4,7,7
2017-05-04,PSEC,7,7,8,3,5
2017-05-04,FARM,8,8,7,8,2
2017-05-04,FARO,5,8,8,3,8
2017-05-04,SIFY,2,4,9,7,3
2017-05-04,MNDO,2,9,9,7,4
2017-05-04,CALX,2,5,5,3,3
2017-05-04,CALI,9,1,6,4,2
2017-05-04,CALL,1,9,8,1,2
2017-05-04,CALM,3,7,3,8,4
2017-05-04,CALD,8,5,2,4,8
2017-05-04,UTEK,8,6,7,9,7
2017-05-04,ZAYO,1,1,2,6,8
2017-05-04,AMZN,9,6,2,9,7
2017-05-04,DAKT,6,8,8,2,7
2017-05-04,XTLY,8,4,1,8,6
2017-05-04,EGOV,8,9,5,8,7
2017-05-04,NNBR,8,2,4,7,8
2017-05-04,DXPE,1,4,6,3,2
2017-05-04,PFNX,3,7,3,9,2
2017-05-04,GASS,2,1,4,1,1
2017-05-04,ITRI,8,6,5,8,8
2017-05-04,RPRX,1,2,1,9,1
2017-05-04,BOBE,2,7,7,7,9
2017-05-04,XCO,2,3,1,3,1
2017-05-04,CREE,5,5,8,4,1
2017-05-04,CREG,9,6,3,4,9
2017-05-04,DYNT,2,5,4,2,9
2017-05-04,WYY,7,4,6,4,7
2017-05-04,WYN,7,4,6,6,9
2017-05-04,PGTI,3,7,7,5,8
2017-05-04,IONS,1,4,1,9,9
2017-05-04,B,5,7,6,7,8
2017-05-04,CTWS,6,2,2,5,5
2017-05-04,SHIP,3,5,2,2,1
2017-05-04,BSQR,1,7,5,4,2
2017-05-04,VMI,5,7,7,4,3
2017-05-04,TUP,5,5,7,6,9
2017-05-04,VMC,5,5,3,9,8
2017-05-04,VMW,8,9,5,7,5
2017-05-04,ALCO,6,3,6,5,9
2017-05-04,HCLP,9,3,2,1,1
2017-05-04,STMP,3,9,5,9,2
2017-05-04,AGRO,2,4,8,9,3
2017-05-04,CMS,7,2,5,6,4
2017-05-04,BLCM,2,2,1,1,9
2017-05-04,HMHC,4,1,2,2,9
2017-05-04,ROKA,9,1,6,9,3
2017-05-04,OSTK,5,6,6,6,2
2017-05-04,SKIS,9,1,6,1,8
2017-05-04,CCCL,7,2,3,1,1
2017-05-04,QSR,4,3,2,5,6
2017-05-04,PAR,1,5,7,6,9
2017-05-04,WHLM,8,6,6,2,2
2017-05-04,PAY,5,4,4,6,6
2017-05-04,DFBG,9,2,2,5,9
2017-05-04,CKH,6,1,3,1,4
2017-05-04,PAA,9,1,6,3,1
2017-05-04,PAC,4,8,3,4,8
2017-05-04,PAG,2,5,9,5,5
2017-05-04,PAH,3,1,3,9,8
2017-05-04,CKX,8,8,2,1,2
2017-05-04,DCO,8,3,9,7,8
2017-05-04,DCM,7,9,9,4,5
2017-05-04,PERF,1,3,6,2,1
2017-05-04,DCI,4,9,5,4,8
2017-05-04,BMCH,5,6,7,8,4
2017-05-04,UAMY,2,1,3,7,1
2017-05-04,PERY,4,6,9,9,3
2017-05-04,AETI,8,1,3,1,1
2017-05-04,MTCH,7,8,3,5,9
2017-05-04,DRRX,6,2,1,1,1
2017-05-04,DAR,5,3,7,5,7
2017-05-04,OII,1,6,8,1,3
2017-05-04,IHG,1,9,4,4,9
2017-05-04,AEP,7,2,5,2,5
2017-05-04,AES,6,1,5,1,3
2017-05-04,AER,1,3,8,4,6
2017-05-04,AEY,8,5,4,3,3
2017-05-04,GBL,2,6,8,8,3
2017-05-04,AEE,7,3,6,7,3
2017-05-04,AEM,9,5,4,7,8
2017-05-04,AEO,8,9,9,8,8
2017-05-04,BUR,1,2,1,8,2
2017-05-04,GSAT,2,1,1,7,9
2017-05-04,TILE,2,8,8,4,8
2017-05-04,MEET,9,8,7,9,6
2017-05-04,MSCI,6,8,3,7,8
2017-05-04,MSCC,2,4,4,4,2
2017-05-04,MOS,1,3,7,1,1
2017-05-04,IMKTA,3,5,8,6,8
2017-05-04,MOV,1,9,3,3,3
2017-05-04,MOH,4,6,3,3,9
2017-05-04,MON,7,8,4,4,6
2017-05-04,MOC,3,5,4,2,9
2017-05-04,MOD,5,3,5,5,8
2017-05-04,KMG,4,8,6,9,9
2017-05-04,ETP,5,2,7,7,1
2017-05-04,KMI,7,1,4,5,2
2017-05-04,KMT,8,4,3,4,8
2017-05-04,ETE,9,1,5,6,2
2017-05-04,ETH,2,9,8,7,8
2017-05-04,ETN,4,6,6,5,6
2017-05-04,ETM,7,4,8,5,1
2017-05-04,DLTR,9,8,7,5,8
2017-05-04,ALLT,2,7,5,4,7
2017-05-04,TCAP,4,7,4,2,3
2017-05-04,RLJE,9,5,2,7,8
2017-05-04,UEIC,8,7,4,2,7
2017-05-04,AAP,2,8,7,4,4
2017-05-04,CVX,1,4,4,1,3
2017-05-04,CVV,6,4,6,3,8
2017-05-04,CVU,8,1,3,1,1
2017-05-04,CVR,6,8,9,6,5
2017-05-04,CVS,4,6,8,4,6
2017-05-04,CVO,9,4,8,8,2
2017-05-04,CVM,1,2,1,6,9
2017-05-04,CVI,6,4,9,1,9
2017-05-04,CVG,6,8,9,7,9
2017-05-04,CVE,7,3,7,2,1
2017-05-04,CVA,4,2,3,2,1
2017-05-04,MODN,7,6,2,2,8
2017-05-04,RGSE,9,4,7,1,2
2017-05-04,JOUT,4,8,9,5,4
2017-05-04,ARDM,8,3,4,1,1
2017-05-04,BIG,6,9,9,7,8
2017-05-04,WDC,2,4,5,1,8
2017-05-04,GRBK,5,7,8,3,9
2017-05-04,WDR,1,9,9,2,5
2017-05-04,HCSG,4,9,4,8,9
2017-05-04,ELMD,4,9,7,9,3
2017-05-04,EGAN,4,6,4,4,9
2017-05-04,LVNTA,2,6,3,5,7
2017-05-04,EGAS,7,5,5,3,4
2017-05-04,XTNT,9,5,2,8,1
2017-05-04,ESTE,9,1,1,5,1
2017-05-04,CGEN,1,3,1,1,1
2017-05-04,PFLT,7,3,4,6,3
2017-05-04,HDSN,9,8,8,9,9
2017-05-04,MSGN,5,9,7,7,2
2017-05-04,SLB,1,2,3,1,1
2017-05-04,HUSA,8,2,1,2,9
2017-05-04,VIAB,7,7,8,2,1
2017-05-04,XEC,1,3,1,3,3
2017-05-04,XEL,5,4,5,5,5
2017-05-04,VIAV,8,6,5,3,5
2017-05-04,HQY,9,9,2,8,8
2017-05-04,KOOL,2,2,2,1,3
2017-05-04,TWI,8,1,5,2,6
2017-05-04,TWX,7,6,6,6,5
2017-05-04,GNMK,9,3,1,7,3
2017-05-04,VEEV,9,9,2,8,8
2017-05-04,JTPY,5,1,3,1,8
2017-05-04,SHOP,9,6,1,3,9
2017-05-04,SHOR,6,6,3,7,8
2017-05-04,SHOS,9,7,7,2,1
2017-05-04,SHOO,2,9,8,5,7
2017-05-04,VSR,9,2,2,1,1
2017-05-04,GFF,6,3,7,7,7
2017-05-04,WBAI,2,4,5,1,1
2017-05-04,VSH,7,5,9,3,8
2017-05-04,VSI,2,7,9,3,3
2017-05-04,RYN,6,5,7,8,3
2017-05-04,EOG,1,2,2,3,2
2017-05-04,RYI,9,5,8,7,3
2017-05-04,EXLS,2,9,6,4,8
2017-05-04,PDVW,1,5,1,1,9
2017-05-04,ROIA,9,6,7,7,8
2017-05-04,STKL,6,1,4,2,8
2017-05-04,STKS,1,5,2,8,9
2017-05-04,PTX,1,1,1,5,9
2017-05-04,WILN,4,8,9,9,2
2017-05-04,WILC,9,8,3,5,3
2017-05-04,CMI,2,8,8,5,8
2017-05-04,CMG,9,9,2,1,8
2017-05-04,CME,5,5,3,6,5
2017-05-04,CMC,8,5,8,4,2
2017-05-04,PCH,6,4,4,1,3
2017-05-04,PCO,6,6,3,9,2
2017-05-04,CMT,6,8,9,3,9
2017-05-04,PCG,4,3,5,7,4
2017-05-04,CMP,5,4,5,3,1
2017-05-04,INGN,8,9,2,7,9
2017-05-04,FEIM,5,6,3,1,3
2017-05-04,FLWS,3,8,8,8,5
2017-05-04,INGR,7,7,7,8,5
2017-05-04,MTEX,5,8,4,2,2
2017-05-04,PGEM,4,4,8,9,4
2017-05-04,OKS,7,3,7,7,2
2017-05-04,INT,4,3,9,4,6
2017-05-04,INS,7,8,2,2,1
2017-05-04,NDAQ,5,3,4,5,3
2017-05-04,UHS,2,7,7,6,5
2017-05-04,AKS,9,3,8,9,1
2017-05-04,GLP,9,1,3,2,2
2017-05-04,GLT,3,2,6,2,1
2017-05-04,ORIG,9,2,6,3,1
2017-05-04,SCHW,5,3,4,6,4
2017-05-04,BSX,9,2,2,8,8
2017-05-04,SCHN,5,3,9,9,1
2017-05-04,SCHL,8,9,9,7,7
2017-05-04,F,1,2,9,2,3
2017-05-04,CTHR,4,4,7,3,1
2017-05-04,KNDI,1,2,2,1,9
2017-05-04,MPC,1,6,8,3,6
2017-05-04,SBS,9,4,8,1,1
2017-05-04,RCMT,6,8,9,5,7
2017-05-04,MMP,2,4,3,5,2
2017-05-04,MMS,2,9,7,7,2
2017-05-04,MMM,7,9,4,7,7
2017-05-04,MMI,3,9,9,7,8
2017-05-04,SBH,3,8,8,5,4
2017-05-04,QUIK,1,4,1,2,2
2017-05-04,ERS,9,4,9,5,5
2017-05-04,KOF,5,6,6,2,5
2017-05-04,ERF,9,4,6,3,1
2017-05-04,ERA,4,3,8,1,2
2017-05-04,KOP,5,3,7,7,2
2017-05-04,KOS,5,1,1,1,1
2017-05-04,ERI,2,1,5,4,6
2017-05-04,ERJ,4,2,8,2,1
2017-05-04,MDCO,1,2,1,1,2
2017-05-04,CELG,9,8,2,7,3
2017-05-04,WLFC,8,4,8,6,8
2017-05-04,HYGS,1,3,1,2,7
2017-05-04,EDGW,3,7,8,7,4
2017-05-04,TCCO,8,5,6,1,7
2017-05-04,GENE,1,4,5,1,3
2017-05-04,GENC,4,7,9,8,7
2017-05-04,SPTN,8,6,9,7,8
2017-05-04,ONDK,4,1,6,2,3
2017-05-04,ECOL,4,5,4,4,9
2017-05-04,RT,5,1,5,2,3
2017-05-04,RP,5,5,2,7,7
2017-05-04,RS,6,6,9,6,2
2017-05-04,RL,1,9,8,2,7
2017-05-04,RM,9,6,9,5,8
2017-05-04,RH,1,6,4,2,9
2017-05-04,LGCY,1,1,3,2,1
2017-05-04,WFM,1,8,7,5,9
2017-05-04,HZNP,4,1,3,3,8
2017-05-04,CHTR,9,1,3,6,3
2017-05-04,WFT,6,1,1,1,1
2017-05-04,DISCA,7,7,7,5,1
2017-05-04,DISCB,3,7,7,5,2
2017-05-04,DISCK,7,7,7,5,1
2017-05-04,NBY,7,4,1,9,1
2017-05-04,TEN,7,5,9,7,2
2017-05-04,WCC,5,6,8,2,1
2017-05-04,LXRX,6,2,1,5,9
2017-05-04,AGIO,3,2,1,2,1
2017-05-04,ELOS,3,8,5,9,3
2017-05-04,PLXS,7,5,9,3,1
2017-05-04,TEF,2,4,5,4,5
2017-05-04,ELON,1,7,7,8,5
2017-05-04,TVIA,5,3,1,3,2
2017-05-04,AXDX,6,3,1,5,9
2017-05-04,XNCR,6,5,4,9,5
2017-05-04,CACI,4,5,7,4,7
2017-05-04,CJJD,4,3,7,6,6
2017-05-04,SRDX,6,9,6,3,3
2017-05-04,ZEN,9,4,1,6,8
2017-05-04,CRIS,1,3,1,1,1
2017-05-04,SUNS,8,4,8,5,5
2017-05-04,RGLS,1,2,5,1,9
2017-05-04,AMDA,1,4,7,6,4
2017-05-04,RGLD,7,3,2,1,2
2017-05-04,VICL,2,3,6,8,8
2017-05-04,VICR,9,8,2,9,9
2017-05-04,RRTS,7,2,9,4,6
2017-05-04,HSC,6,1,6,4,9
2017-05-04,OMAB,8,9,4,8,7
2017-05-04,OMAM,5,7,6,6,4
2017-05-04,CTSH,9,9,6,4,7
2017-05-04,IART,6,5,2,9,9
2017-05-04,CTSO,2,5,1,9,9
2017-05-04,LVLT,7,6,5,7,8
2017-05-04,SYK,9,8,3,6,7
2017-05-04,VNCE,1,8,1,2,1
2017-05-04,SYT,4,7,4,4,7
2017-05-04,SYY,3,7,7,6,7
2017-05-04,SYX,1,7,5,9,9
2017-05-04,TOWR,4,5,9,6,3
2017-05-04,EME,6,6,8,7,8
2017-05-04,RGR,2,9,8,4,9
2017-05-04,RGS,1,7,9,6,2
2017-05-04,EML,4,8,9,7,9
2017-05-04,EMN,6,5,7,3,3
2017-05-04,RGC,6,7,6,6,2
2017-05-04,EMR,7,9,7,3,3
2017-05-04,SMSI,8,4,1,4,9
2017-05-04,DCTH,1,2,4,9,1
2017-05-04,LDL,8,7,7,6,9
2017-05-04,LDR,6,7,4,7,9
2017-05-04,OLED,6,9,2,8,8
2017-05-04,CLCT,4,9,5,8,6
2017-05-04,ULTA,9,9,3,8,7
2017-05-04,ULTI,5,7,2,5,8
2017-05-04,WINT,1,1,1,9,6
2017-05-04,WINA,4,9,3,8,9
2017-05-04,WING,6,6,2,9,8
2017-05-04,ILG,4,6,5,3,9
2017-05-04,PEP,7,8,5,6,4
2017-05-04,PES,9,1,3,1,1
2017-05-04,KLXI,7,3,7,3,8
2017-05-04,PED,9,1,1,8,9
2017-05-04,COH,9,9,7,3,8
2017-05-04,PEG,7,2,4,2,3
2017-05-04,COL,7,7,5,5,8
2017-05-04,ASGN,2,7,6,7,9
2017-05-04,PENN,2,3,8,8,6
2017-05-04,UFI,5,6,8,7,5
2017-05-04,UFS,5,4,9,5,8
2017-05-04,TYPE,1,8,3,2,4
2017-05-04,MKC,7,8,4,6,5
2017-05-04,AIT,3,8,8,4,7
2017-05-04,AIQ,2,5,8,5,9
2017-05-04,AIR,8,4,8,5,7
2017-05-04,GNC,9,6,4,1,8
2017-05-04,AIN,8,5,5,6,8
2017-05-04,GNE,5,7,6,2,5
2017-05-04,GNK,1,2,2,1,1
2017-05-04,NSH,3,6,4,6,3
2017-05-04,NSM,5,1,4,2,7
2017-05-04,NSPR,9,2,7,3,1
2017-05-04,MNST,9,9,2,8,3
2017-05-04,NSC,5,4,6,5,6
2017-05-04,NSP,7,8,7,8,3
2017-05-04,NSR,5,8,8,3,4
2017-05-04,NSU,9,7,6,3,1
2017-05-04,RCKY,1,6,9,1,9
2017-05-04,SATS,7,4,8,7,6
2017-05-04,HOTR,1,3,2,9,1
2017-05-04,QUOT,8,7,3,8,9
2017-05-04,ACRX,1,5,4,1,1
2017-05-04,HSNI,4,8,9,3,2
2017-05-04,TLRD,2,7,9,5,1
2017-05-04,FTEK,8,6,7,1,1
2017-05-04,FTEO,3,5,6,3,1
2017-05-04,EPM,6,9,5,5,1
2017-05-04,PARR,1,1,4,7,3
2017-05-04,EPD,3,1,4,5,3
2017-05-04,EPE,9,1,6,3,2
2017-05-04,EPC,4,5,4,6,8
2017-05-04,LYV,6,4,6,5,7
2017-05-04,CENT,5,6,7,9,2
2017-05-04,LYB,7,8,9,5,1
2017-05-04,ADGE,8,3,2,5,6
2017-05-04,BWLD,2,7,6,6,8
2017-05-04,WLDN,9,9,7,7,1
2017-05-04,BURL,9,7,6,9,8
2017-05-04,NIHD,8,1,1,2,1
2017-05-04,WCST,1,1,1,5,9
2017-05-04,CABO,7,8,3,6,8
2017-05-04,GNRC,2,6,7,3,2
2017-05-04,NXTM,8,7,2,9,7
2017-05-04,SILC,8,9,4,2,8
2017-05-04,KMDA,8,5,2,4,7
2017-05-04,SHPG,5,2,2,1,7
2017-05-04,ABUS,9,2,4,1,7
2017-05-04,SEED,5,2,6,1,1
2017-05-04,SMTX,6,5,9,8,2
2017-05-04,LSTR,6,9,7,5,3
2017-05-04,PFPT,8,1,2,7,6
2017-05-04,YUM,2,9,4,8,8
2017-05-04,GAIN,8,4,8,3,8
2017-05-04,JWN,1,8,8,3,9
2017-05-04,EXAR,6,7,7,4,4
2017-05-04,SSKN,8,1,5,9,9
2017-05-04,BRSS,7,7,9,7,6
2017-05-04,XYL,7,5,3,3,3
2017-05-04,TSN,1,6,8,9,5
2017-05-04,TSO,1,6,9,6,4
2017-05-04,TSM,8,9,6,7,8
2017-05-04,WBMD,4,7,5,9,8
2017-05-04,TSE,9,6,9,9,1
2017-05-04,LPTH,3,7,4,9,8
2017-05-04,TST,8,5,2,3,9
2017-05-04,TSU,8,7,6,2,2
2017-05-04,TSS,9,6,4,3,9
2017-05-04,OMCL,3,4,3,2,8
2017-05-04,HUM,2,8,8,2,8
2017-05-04,HUN,8,4,9,7,3
2017-05-04,KVHI,1,6,8,2,7
2017-05-04,FFIV,9,9,6,7,1
2017-05-04,MSTR,4,9,7,5,5
2017-05-04,SAIC,9,6,7,7,3
2017-05-04,SAIA,6,7,7,5,7
2017-05-04,UFPI,7,7,9,8,3
2017-05-04,VWR,7,4,6,5,9
2017-05-04,SNCR,7,5,6,2,1
2017-05-04,REX,9,9,9,7,8
2017-05-04,RES,6,5,2,1,2
2017-05-04,REV,6,5,5,3,2
2017-05-04,REI,3,2,1,1,9
2017-05-04,REN,5,3,1,5,1
2017-05-04,FCX,1,1,4,2,1
2017-05-04,LFL,8,3,6,6,3
2017-05-04,FCN,6,6,8,5,1
2017-05-04,FGEN,1,4,1,5,9
2017-05-04,SR,4,2,4,8,5
2017-05-04,SQ,1,4,2,9,8
2017-05-04,SU,7,3,3,3,6
2017-05-04,ST,2,6,5,5,2
2017-05-04,SO,7,3,4,4,3
2017-05-04,SN,8,5,2,4,1
2017-05-04,SM,9,1,2,1,1
2017-05-04,SC,1,7,9,4,4
2017-05-04,SB,8,2,2,1,6
2017-05-04,SF,6,3,3,3,3
2017-05-04,SD,8,6,4,4,8
2017-05-04,IBM,7,7,7,2,1
2017-05-04,QRHC,1,1,3,5,9
2017-05-04,CAR,7,8,8,4,9
2017-05-04,CAW,8,6,8,9,7
2017-05-04,CAT,1,2,4,1,8
2017-05-04,CAJ,3,7,9,2,8
2017-05-04,CAI,9,2,4,2,9
2017-05-04,CAH,3,5,9,8,1
2017-05-04,CAL,2,8,9,4,9
2017-05-04,IBP,8,7,4,9,4
2017-05-04,CAB,7,3,8,2,7
2017-05-04,CAA,4,6,9,6,2
2017-05-04,CAG,2,5,6,4,2
2017-05-04,CAE,6,5,5,2,7
2017-05-04,INCR,3,6,5,8,1
2017-05-04,INCY,5,7,1,9,1
2017-05-04,PGH,3,1,6,1,1
2017-05-04,DYN,9,1,7,4,1
2017-05-04,ZIOP,1,3,1,6,9
2017-05-04,OGS,4,5,5,7,5
2017-05-04,OGE,6,4,5,5,3
2017-05-04,MIK,3,8,8,5,5
2017-05-04,GRUB,9,8,2,7,9
2017-05-04,MIC,5,1,3,9,4
2017-05-04,RCII,1,3,8,5,9
2017-05-04,GHC,8,8,9,7,4
2017-05-04,GHL,2,9,8,7,1
2017-05-04,FSFR,6,3,8,4,2
2017-05-04,RIBT,7,3,2,5,8
2017-05-04,AOI,5,1,5,7,6
2017-05-04,AOS,7,9,4,9,8
2017-05-04,MEOH,5,4,7,1,2
2017-05-04,CVRS,1,1,1,4,2
2017-05-04,CVRR,5,4,9,1,8
2017-05-04,RNVA,1,6,1,7,1
2017-05-04,QUMU,1,4,2,9,3
2017-05-04,SFS,1,2,4,3,3
2017-05-04,SFL,3,6,6,6,3
2017-05-04,SFM,1,8,6,7,3
2017-05-04,ACTA,5,4,2,8,4
2017-05-04,SAVE,2,9,6,5,9
2017-05-04,ACTG,7,5,4,9,1
2017-05-04,KSU,5,5,5,6,7
2017-05-04,KSS,1,7,9,3,8
2017-05-04,BBRY,4,3,1,5,9
2017-05-04,ENBL,6,3,6,6,2
2017-05-04,MLAB,7,7,2,5,9
2017-05-04,LBRDK,4,2,2,2,3
2017-05-04,LBRDA,4,2,3,1,3
2017-05-04,APPS,2,2,2,7,9
2017-05-04,PRTS,6,6,7,9,9
2017-05-04,ARNC,7,3,6,5,6
2017-05-04,ARNA,1,4,2,9,1
2017-05-04,CSCO,9,8,8,6,7
2017-05-04,DWSN,9,4,6,1,1
2017-05-04,SINO,4,9,6,7,9
2017-05-04,WBC,3,8,6,4,8
2017-05-04,WBA,9,7,8,4,7
2017-05-04,SINA,8,7,6,9,8
2017-05-04,AKAO,8,4,1,3,5
2017-05-04,AKAM,9,9,6,5,1
2017-05-04,BEAT,7,8,4,9,9
2017-05-04,ETSY,9,5,3,8,3
2017-05-04,NFLX,9,5,2,7,8
2017-05-04,AGEN,9,3,1,6,2
2017-05-04,UTMD,2,9,6,6,8
2017-05-04,BW,2,3,3,1,8
2017-05-04,AWRE,9,9,9,7,4
2017-05-04,HAWK,1,5,6,3,7
2017-05-04,CRMT,8,9,9,4,7
2017-05-04,ESRX,3,3,9,8,2
2017-05-04,KLAC,9,9,6,8,7
2017-05-04,IXYS,5,7,9,5,3
2017-05-04,HWKN,5,5,7,5,8
2017-05-04,NOVT,6,8,5,7,8
2017-05-04,MPWR,7,9,2,8,3
2017-05-04,GWW,6,8,8,3,1
2017-05-04,GWR,4,8,5,1,2
2017-05-04,WEYS,2,9,9,3,5
2017-05-04,TMO,4,4,3,6,9
2017-05-04,OMED,4,3,3,1,1
2017-05-04,NJR,5,2,3,6,3
2017-05-04,OMEX,3,5,1,6,7
2017-05-04,NSIT,7,7,9,7,6
2017-05-04,OMER,1,4,1,9,4
2017-05-04,GNTX,5,9,7,7,3
2017-05-04,WVVI,7,8,7,8,4
2017-05-04,EIX,4,4,5,5,3
2017-05-04,RCL,5,2,5,8,9
2017-05-04,LEDS,9,1,2,2,1
2017-05-04,KGJI,9,3,9,8,9
2017-05-04,ROCK,8,5,7,9,3
2017-05-04,PDLI,2,9,9,1,2
2017-05-04,MS,5,2,6,6,6
2017-05-04,VECO,8,5,2,2,9
2017-05-04,RVLT,2,2,3,9,9
2017-05-04,PINC,3,4,4,3,8
2017-05-04,MIDD,6,8,4,8,7
2017-05-04,UCP,8,3,5,9,9
2017-05-04,CCU,2,8,5,3,4
2017-05-04,OAK,2,6,3,9,5
2017-05-04,CCM,3,1,2,1,2
2017-05-04,CCL,4,4,6,9,8
2017-05-04,CCO,3,6,7,8,1
2017-05-04,CCI,8,3,2,4,4
2017-05-04,CCK,6,4,7,7,8
2017-05-04,CCJ,1,5,7,3,1
2017-05-04,CCE,1,6,7,5,4
2017-05-04,CCF,7,9,5,8,9
2017-05-04,CCC,2,5,7,1,4
2017-05-04,PII,1,7,6,2,7
2017-05-04,INAP,4,4,2,2,1
2017-05-04,PIP,4,7,4,1,1
2017-05-04,PIR,1,8,9,2,3
2017-05-04,SYKE,5,8,8,6,7
2017-05-04,VCYT,4,4,1,9,1
2017-05-04,ARQL,1,4,1,1,8
2017-05-04,MAIN,7,3,3,5,8
2017-05-04,CHCI,8,1,7,1,1
2017-05-04,MWA,4,7,7,7,2
2017-05-04,DGLY,5,4,2,1,2
2017-05-04,CVLT,8,8,3,5,9
2017-05-04,AMN,5,7,7,9,8
2017-05-04,AMC,7,1,4,4,2
2017-05-04,AME,7,7,4,3,9
2017-05-04,AMD,9,3,2,2,1
2017-05-04,AMG,9,6,6,4,2
2017-05-04,NWE,6,2,5,7,6
2017-05-04,NWL,9,4,5,2,3
2017-05-04,AMP,5,3,8,2,4
2017-05-04,NWN,5,3,6,6,4
2017-05-04,NSTG,8,3,1,9,1
2017-05-04,UPLD,7,1,2,7,9
2017-05-04,AHGP,8,7,9,5,7
2017-05-04,POWI,8,9,4,4,3
2017-05-04,KORS,6,9,9,6,5
2017-05-04,GSIT,8,6,5,6,2
2017-05-04,PRTY,6,4,8,7,9
2017-05-04,PRTA,2,2,1,1,3
2017-05-04,MEMP,9,1,6,1,2
2017-05-04,GOLD,9,8,5,5,2
2017-05-04,SPNS,6,9,5,6,2
2017-05-04,SVVC,4,1,2,1,7
2017-05-04,SPNC,8,3,1,3,2
2017-05-04,SPNE,4,5,2,3,4
2017-05-04,TX,8,6,9,4,2
2017-05-04,TV,2,5,4,2,2
2017-05-04,TU,6,5,4,3,5
2017-05-04,TR,5,9,4,6,3
2017-05-04,TS,6,6,3,1,1
2017-05-04,TM,7,5,9,5,5
2017-05-04,TK,1,2,8,6,1
2017-05-04,TI,1,3,8,6,8
2017-05-04,TG,8,3,7,4,2
2017-05-04,TA,8,4,7,5,6
2017-05-04,AE,9,5,3,6,8
2017-05-04,AG,6,5,5,6,1
2017-05-04,AI,8,1,9,3,5
2017-05-04,AL,2,8,5,6,4
2017-05-04,AN,1,5,9,5,4
2017-05-04,TSRI,8,9,4,8,2
2017-05-04,AP,8,2,3,1,7
2017-05-04,AR,8,1,3,1,1
2017-05-04,AU,9,3,8,6,2
2017-05-04,AT,6,1,4,3,1
2017-05-04,ISRG,9,9,2,5,9
2017-05-04,UBNT,8,9,6,9,6
2017-05-04,ARLP,9,7,9,6,7
2017-05-04,WLH,6,4,9,3,9
2017-05-04,AUY,9,1,5,4,2
2017-05-04,GNVC,1,4,1,1,9
2017-05-04,WLK,7,5,6,1,2
2017-05-04,WLL,7,1,6,2,1
2017-05-04,SBAC,3,2,2,7,8
2017-05-04,FALC,4,7,1,2,9
2017-05-04,WLB,9,1,7,7,1
2017-05-04,NXPI,4,5,3,2,5
2017-05-04,TEVA,5,2,5,2,2
2017-05-04,APRI,1,5,1,9,1
2017-05-04,GLPG,2,6,3,5,3
2017-05-04,BECN,2,5,7,7,5
2017-05-04,TGEN,7,5,2,9,2
2017-05-04,SEAS,1,1,5,1,5
2017-05-04,CSWC,7,8,3,3,2
2017-05-04,SEAC,1,6,2,1,8
2017-05-04,DHIL,5,9,7,7,8
2017-05-04,JMBA,3,8,2,6,2
2017-05-04,VRML,1,2,1,3,2
2017-05-04,KCAP,8,4,7,3,1
2017-05-04,BNFT,5,6,1,9,9
2017-05-04,FIVE,5,9,4,8,9
2017-05-04,LHCG,2,8,6,6,8
2017-05-04,IRWD,8,2,1,9,2
2017-05-04,FIVN,8,5,2,9,8
2017-05-04,RADA,6,1,2,1,3
2017-05-04,CROX,1,8,8,5,1
2017-05-04,LTRPB,2,4,8,7,9
2017-05-04,ASPN,5,3,3,5,3
2017-05-04,ASPS,5,8,9,3,1
2017-05-04,RPXC,3,7,8,2,9
2017-05-04,MARK,3,5,1,8,9
2017-05-04,MYOS,1,2,1,2,1
2017-05-04,TOT,3,7,7,6,4
2017-05-04,TOO,7,2,8,5,2
2017-05-04,TOL,3,5,9,7,6
2017-05-04,BELFB,9,2,8,4,7
2017-05-04,BELFA,9,2,8,4,7
2017-05-04,BVSN,1,5,6,1,5
2017-05-04,NHC,5,8,7,5,8
2017-05-04,ATNI,4,6,6,2,2
2017-05-04,HII,7,7,8,8,4
2017-05-04,HIL,5,5,5,1,8
2017-05-04,VALE,9,2,9,5,1
2017-05-04,SAMG,3,9,9,4,3
2017-05-04,EGY,1,8,2,5,8
2017-05-04,EGT,4,4,4,1,9
2017-05-04,XONE,5,4,2,4,8
2017-05-04,EGO,9,2,8,2,5
2017-05-04,EGN,6,2,4,2,2
2017-05-04,EGL,2,2,6,5,7
2017-05-04,FOSL,1,9,9,2,8
2017-05-04,RAD,1,5,6,3,2
2017-05-04,IMPV,3,6,2,3,9
2017-05-04,EXTR,9,4,3,6,8
2017-05-04,LBY,7,5,9,3,1
2017-05-04,FGP,9,3,5,3,2
2017-05-04,RAI,7,7,4,8,6
2017-05-04,EXTN,9,3,7,1,1
2017-05-04,RVNC,1,3,1,1,5
2017-05-04,OCN,9,1,7,2,1
2017-05-04,OCC,4,5,9,4,5
2017-05-04,IFF,9,8,4,4,8
2017-05-04,CEA,5,3,9,7,2
2017-05-04,CEO,5,5,7,1,2
2017-05-04,PKX,9,2,9,5,2
2017-05-04,FLOW,7,1,2,1,8
2017-05-04,PKG,7,6,7,6,9
2017-05-04,PKD,8,1,4,1,1
2017-05-04,PKE,4,6,2,3,7
2017-05-04,PKI,9,7,4,6,7
2017-05-04,ASML,6,8,3,7,5
2017-05-04,SYMC,2,8,2,3,8
2017-05-04,VJET,5,4,2,2,9
2017-05-04,SYMX,5,2,1,5,8
2017-05-04,FDUS,7,4,4,4,7
2017-05-04,ARWR,9,2,5,3,1
2017-05-04,ACXM,9,4,3,6,6
2017-05-04,MUR,1,3,7,3,1
2017-05-04,MUX,5,4,3,9,1
2017-05-04,HIBB,4,9,9,3,1
2017-05-04,ASR,7,9,2,4,8
2017-05-04,ASX,4,5,8,3,2
2017-05-04,NUS,9,9,8,3,7
2017-05-04,ASC,1,2,4,6,2
2017-05-04,ASH,5,4,4,3,3
2017-05-04,SIEN,5,4,1,1,4
2017-05-04,DUK,7,1,4,4,4
2017-05-04,R,4,3,8,4,1
2017-05-04,CRME,1,3,1,8,9
2017-05-04,LODE,1,1,1,3,1
2017-05-04,HSTM,5,7,3,3,9
2017-05-04,PATK,9,7,7,7,9
2017-05-04,PTLA,1,3,1,6,7
2017-05-04,KWR,6,9,5,6,9
2017-05-04,GSOL,3,8,9,5,9
2017-05-04,TTNP,5,7,8,9,1
2017-05-04,MUSA,6,9,9,8,1
2017-05-04,RMBS,2,9,5,4,3
2017-05-04,DEPO,8,3,5,7,1
2017-05-04,SPLP,4,5,3,7,2
2017-05-04,SPLS,1,6,7,2,6
2017-05-04,CETV,9,3,5,7,9
2017-05-04,CETX,7,7,9,9,2
2017-05-04,ADMA,1,2,1,9,1
2017-05-04,NAII,7,9,9,9,5
2017-05-04,MMLP,8,3,8,8,5
2017-05-04,WNC,5,8,9,9,9
2017-05-04,FANG,5,3,2,4,2
2017-05-04,WNR,1,6,8,4,3
2017-05-04,WNS,1,9,5,8,9
2017-05-04,AKER,9,3,1,6,2
2017-05-04,QCOM,9,8,6,3,2
2017-05-04,CADC,9,1,7,1,1
2017-05-04,WDFC,3,9,4,8,2
2017-05-04,DCIX,3,1,3,1,1
2017-05-04,ELGX,7,2,1,1,9
2017-05-04,NVEE,8,8,6,6,8
2017-05-04,NVEC,7,9,4,4,3
2017-05-04,BBSI,7,5,9,4,9
2017-05-04,CCRN,1,4,6,8,6
2017-05-04,SRLP,5,5,9,6,6
2017-05-04,CMCSA,5,5,6,6,6
2017-05-04,PPC,5,8,9,4,9
2017-05-04,PPG,7,8,5,5,8
2017-05-04,PPL,4,5,4,7,6
2017-05-04,PPP,5,1,2,1,1
2017-05-04,NGVC,2,7,7,4,8
2017-05-04,BRID,3,9,8,7,9
2017-05-04,DAL,7,7,8,6,8
2017-05-04,GSS,5,1,2,4,1
2017-05-04,BG,3,3,9,5,1
2017-05-04,GST,9,4,3,2,1
2017-05-04,BC,2,8,8,7,2
2017-05-04,BH,7,4,9,5,7
2017-05-04,TIS,4,4,6,2,1
2017-05-04,BV,8,4,2,8,9
2017-05-04,GSB,5,9,7,4,6
2017-05-04,BP,7,1,5,2,4
2017-05-04,BR,4,7,4,6,7
2017-05-04,TIK,5,8,9,9,1
2017-05-04,GSH,5,6,7,2,1
2017-05-04,GSK,6,7,4,2,3
2017-05-04,GSM,1,6,9,5,1
2017-05-04,GSL,7,1,7,2,3
2017-05-04,AVID,9,8,7,9,9
2017-05-04,ATHN,1,5,3,9,1
2017-05-04,NNA,1,6,9,7,2
2017-05-04,AVIR,3,4,6,1,1
2017-05-04,ATHX,1,6,1,9,1
2017-05-04,SENEA,7,3,9,5,8
2017-05-04,SENEB,6,3,9,4,6
2017-05-04,SQM,8,7,5,3,5
2017-05-04,BSET,2,9,9,8,9
2017-05-04,EEP,7,2,5,3,3
2017-05-04,EOCC,4,8,7,3,8
2017-05-04,LLY,9,8,4,4,2
2017-05-04,ROK,9,9,5,4,3
2017-05-04,ROL,3,9,2,7,8
2017-05-04,ROG,4,7,5,7,9
2017-05-04,ROX,6,4,2,9,8
2017-05-04,LLL,5,3,7,5,6
2017-05-04,ROP,7,6,3,4,8
2017-05-04,BDE,8,5,4,7,7
2017-05-04,BDC,7,5,7,7,9
2017-05-04,BDL,6,8,9,6,8
2017-05-04,BDR,9,4,7,9,7
2017-05-04,AEZS,2,2,3,2,1
2017-05-04,BDX,9,6,3,5,4
2017-05-04,SDLP,9,6,9,7,7
2017-05-04,MIXT,7,9,8,4,4
2017-05-04,UL,6,9,5,6,8
2017-05-04,UN,6,9,4,8,8
2017-05-04,UG,1,9,5,1,3
2017-05-04,QLYS,8,9,3,8,9
2017-05-04,UA,9,9,4,4,7
2017-05-04,IDT,6,9,9,5,9
2017-05-04,IDN,1,4,1,1,9
2017-05-04,BGFV,3,8,9,5,3
2017-05-04,IDA,6,4,4,4,4
2017-05-04,CGI,9,5,9,4,1
2017-05-04,CGA,8,9,6,2,3
2017-05-04,CGG,9,1,7,2,3
2017-05-04,PMD,5,9,8,8,3
2017-05-04,PMC,3,3,6,2,8
2017-05-04,FET,6,3,4,1,1
2017-05-04,MAMS,3,6,4,5,5
2017-05-04,BMRN,7,3,1,2,9
2017-05-04,NEWM,2,5,9,6,6
2017-05-04,CHGG,8,5,2,7,9
2017-05-04,MSN,9,6,4,2,3
2017-05-04,MSM,3,9,7,5,1
2017-05-04,MSI,7,7,5,6,6
2017-05-04,NEWR,8,5,1,9,9
2017-05-04,MSB,9,9,5,4,2
2017-05-04,MSA,8,8,5,7,9
2017-05-04,ORCL,7,8,6,3,5
2017-05-04,AQN,7,1,3,7,5
2017-05-04,JCOM,3,6,4,6,9
2017-05-04,COKE,2,4,4,5,5
2017-05-04,ABBV,7,8,5,7,7
2017-05-04,LFVN,9,9,9,6,2
2017-05-04,MOSY,9,2,6,6,1
2017-05-04,EQIX,7,1,2,3,8
2017-05-04,GTIM,6,4,4,8,8
2017-05-04,NRCIA,3,9,4,7,9
2017-05-04,NRCIB,3,9,2,7,8
2017-05-04,KYO,7,7,9,4,8
2017-05-04,VRTX,9,7,2,9,8
2017-05-04,VRTS,4,9,2,2,3
2017-05-04,VRTU,1,6,5,3,9
2017-05-04,VRTV,8,5,9,8,1
2017-05-04,ENDP,2,1,3,1,4
2017-05-04,CBLI,1,5,1,6,9
2017-05-04,TRTN,2,3,3,2,9
2017-05-04,BYD,5,2,6,6,9
2017-05-04,PRPH,7,5,2,3,2
2017-05-04,VLRS,4,9,6,6,1
2017-05-04,CRTO,4,9,4,9,8
2017-05-04,CRTN,9,5,3,4,1
2017-05-04,AGX,9,9,9,4,8
2017-05-04,ICUI,8,9,4,6,5
2017-05-04,IDCC,9,9,8,9,2
2017-05-04,IPWR,3,2,1,1,1
2017-05-04,CEVA,8,8,2,9,7
2017-05-04,CPRT,3,8,4,7,1
2017-05-04,WPCS,1,6,3,5,4
2017-05-04,WHF,7,7,7,5,7
2017-05-04,WHG,3,9,8,5,8
2017-05-04,WHR,5,4,8,5,9
2017-05-04,TAST,2,3,6,9,5
2017-05-04,V,7,8,2,3,7
2017-05-04,AGCO,5,4,7,1,8
2017-05-04,SEMG,7,3,5,4,1
2017-05-04,IRIX,9,8,3,1,2
2017-05-04,PTSI,2,7,8,4,9
2017-05-04,UTSI,6,3,3,6,8
2017-05-04,KEYS,5,9,7,3,8
2017-05-04,KEYW,8,3,5,4,8
2017-05-04,NVGS,1,4,5,3,1
2017-05-04,ANTM,9,6,9,5,9
2017-05-04,NVGN,5,2,5,1,1
2017-05-04,SRNE,1,1,1,8,1
2017-05-04,RUTH,2,8,6,7,4
2017-05-04,FIZZ,3,9,3,8,8
2017-05-04,RELY,6,1,2,3,2
2017-05-04,PRO,9,6,1,1,9
2017-05-04,ASTE,5,8,8,8,7
2017-05-04,JOB,1,4,4,9,7
2017-05-04,RELL,6,7,5,4,8
2017-05-04,DZSI,9,6,7,6,1
2017-05-04,INXN,6,5,2,4,8
2017-05-04,MAR,5,3,4,3,8
2017-05-04,MAT,2,7,5,2,1
2017-05-04,SNAK,6,1,3,2,1
2017-05-04,AMRI,4,1,2,1,9
2017-05-04,TNET,6,5,6,6,9
2017-05-04,AXAS,9,1,2,2,1
2017-05-04,AMRC,4,4,7,9,7
2017-05-04,BRKR,3,8,5,8,9
2017-05-04,SUPN,9,9,3,9,8
2017-05-04,MTRX,4,6,9,5,1
2017-05-04,AMRS,1,1,1,9,9
2017-05-04,NLS,3,9,8,8,8
2017-05-04,AVGO,9,4,2,1,7
2017-05-04,HMY,9,3,9,9,1
2017-05-04,MYCC,3,1,5,7,1
2017-05-04,DEST,1,6,6,3,1
2017-05-04,TKR,3,6,7,5,9
2017-05-04,LPLA,1,6,7,6,9
2017-05-04,AVGR,1,1,2,5,1
2017-05-04,HMC,5,4,9,3,3
2017-05-04,DLA,9,3,8,4,2
2017-05-04,DLX,6,8,7,5,8
2017-05-04,SSY,9,8,8,1,8
2017-05-04,SSW,5,1,6,2,8
2017-05-04,SSP,2,7,7,9,1
2017-05-04,SSL,5,9,7,2,7
2017-05-04,SSN,2,2,9,8,1
2017-05-04,SSI,7,3,5,1,9
2017-05-04,SSD,7,9,7,9,4
2017-05-04,MSLI,5,1,5,2,1
2017-05-04,ECA,4,1,2,1,1
2017-05-04,EXPR,5,9,9,2,8
2017-05-04,ECL,7,7,4,7,4
2017-05-04,ALQA,1,2,1,9,1
2017-05-04,LNN,4,8,6,3,5
2017-05-04,EXPO,3,9,4,6,8
2017-05-04,ECR,9,1,2,8,1
2017-05-04,RMD,4,9,4,4,3
2017-05-04,LNG,1,1,1,8,2
2017-05-04,EXPE,9,6,4,5,9
2017-05-04,EXPD,9,9,7,7,2
2017-05-04,BBL,9,4,5,1,2
2017-05-04,BBG,8,1,7,5,1
2017-05-04,GSVC,5,1,3,8,3
2017-05-04,TRIB,3,2,3,1,3
2017-05-04,BBY,1,9,9,8,8
2017-05-04,BBW,2,9,7,6,9
2017-05-04,TRIP,9,9,3,3,9
2017-05-04,VSLR,4,1,2,9,3
2017-05-04,POT,3,3,4,1,2
2017-05-04,POR,4,3,6,7,4
2017-05-04,POL,6,5,7,7,9
2017-05-04,CYH,7,2,4,2,9
2017-05-04,SMED,5,6,2,6,2
2017-05-04,LENS,1,4,1,1,1
2017-05-04,TSEM,9,5,8,9,2
2017-05-04,FWRD,2,9,6,5,9
2017-05-04,KIRK,3,9,9,3,2
2017-05-04,DTRM,6,2,1,5,9
2017-05-04,CHEF,2,5,8,4,7
2017-05-04,AWX,8,3,7,6,9
2017-05-04,FSNN,3,1,2,9,3
2017-05-04,AWK,7,3,3,4,4
2017-05-04,AWI,1,6,4,7,6
2017-05-04,GLOB,8,9,3,9,8
2017-05-04,GLOG,8,7,3,4,1
2017-05-04,GLOW,9,4,2,1,2
2017-05-04,OAS,8,1,2,1,1
2017-05-04,LMIA,2,1,4,2,6
2017-05-04,CSLT,2,4,1,9,4
2017-05-04,VTNR,2,2,7,3,7
2017-05-04,SQNS,4,2,1,9,9
2017-05-04,EGRX,1,8,3,9,7
2017-05-04,ZG,9,5,1,3,9
2017-05-04,HALO,4,6,1,4,9
2017-05-04,CRVP,8,6,9,8,9
2017-05-04,SWK,5,7,6,8,7
2017-05-04,FLIR,9,8,6,4,7
2017-05-04,CRVL,1,9,5,5,9
2017-05-04,DD,5,7,5,6,3
2017-05-04,CL,7,9,4,8,2
2017-05-04,CC,6,1,3,3,6
2017-05-04,CA,7,9,7,4,7
2017-05-04,CG,3,2,2,4,9
2017-05-04,CF,1,5,3,1,1
2017-05-04,CE,4,6,6,6,2
2017-05-04,DSGX,6,8,2,7,3
2017-05-04,CX,9,2,3,7,2
2017-05-04,CP,3,4,5,7,7
2017-05-04,CW,7,7,7,7,7
2017-05-04,NAME,3,2,2,2,5
2017-05-04,HUBB,4,8,7,4,2
2017-05-04,HUBG,3,7,8,5,1
2017-05-04,HUBS,4,5,1,9,9
2017-05-04,LXFR,4,6,8,3,3
2017-05-04,ZNGA,6,6,3,3,7
2017-05-04,TWTR,7,3,3,9,9
2017-05-04,SBGL,9,5,8,4,1
2017-05-04,TUES,3,6,6,7,1
2017-05-04,SBGI,1,7,7,7,1
2017-05-04,VC,2,8,7,7,8
2017-05-04,VG,4,4,4,3,9
2017-05-04,APHB,9,3,1,5,9
2017-05-04,VZ,7,9,5,3,2
2017-05-04,WMT,1,7,9,4,8
2017-05-04,LAMR,4,6,4,7,2
2017-05-04,ALLE,9,8,4,8,7
2017-05-04,HCAP,5,8,8,5,5
2017-05-04,RVP,8,6,3,5,8
2017-05-04,TRK,5,4,8,5,1
2017-05-04,NVAX,1,3,1,1,1
2017-05-04,SRPT,7,1,1,2,9
2017-05-04,INTC,9,8,7,4,6
2017-05-04,JMP,6,3,8,2,2
2017-05-04,PTC,2,3,2,2,7
2017-05-04,KLIC,2,8,9,6,7
2017-05-04,INVN,8,3,2,1,7
2017-05-04,INVE,1,4,2,8,1
2017-05-04,PTR,2,4,8,3,2
2017-05-04,INVA,2,7,3,9,1
2017-05-04,MATW,5,5,5,6,7
2017-05-04,AMPH,8,6,4,7,8
2017-05-04,MATX,5,1,6,4,3
2017-05-04,PCMI,9,5,9,9,1
2017-05-04,BREW,9,4,3,3,5
2017-05-04,ACAD,8,2,1,6,2
2017-05-04,SUN,3,1,4,3,9
2017-05-04,ZEUS,5,3,8,6,8
2017-05-04,SUP,7,6,9,7,1
2017-05-04,JBLU,1,8,8,8,8
2017-05-04,ATTU,3,7,2,2,4
2017-05-04,TEL,9,7,7,6,6
2017-05-04,AVEO,5,6,1,5,3
2017-05-04,LPNT,5,4,8,4,3
2017-05-04,TEO,4,9,7,5,8
2017-05-04,NBR,8,1,3,1,1
2017-05-04,NSAT,7,9,9,7,9
2017-05-04,INTX,1,4,2,5,9
2017-05-04,TEX,4,2,6,1,9
2017-05-04,NBL,1,2,2,3,1
2017-05-04,TEP,7,3,6,9,2
2017-05-04,TER,2,6,4,2,9
2017-05-04,CORE,3,7,7,4,9
2017-05-04,DNB,6,7,5,4,7
2017-05-04,DNN,9,1,1,9,1
2017-05-04,CORI,1,3,1,1,9
2017-05-04,RENN,6,1,1,1,1
2017-05-04,CORT,9,8,2,9,1
2017-05-04,CORR,9,6,8,9,8
2017-05-04,DNR,8,1,2,1,1
2017-05-04,Z,9,5,1,3,9
2017-05-04,TBPH,7,2,1,8,9
2017-05-04,TCRD,2,4,8,4,4
2017-05-04,DISH,4,6,7,6,2
2017-05-04,WIRE,2,8,8,2,5
2017-05-04,ALSN,4,6,5,7,9
2017-05-04,ALSK,3,6,8,2,9
2017-05-04,EAT,5,6,8,6,7
2017-05-04,HOG,7,6,7,4,1
2017-05-04,CIDM,9,3,7,5,9
2017-05-04,HON,7,7,6,6,8
2017-05-04,HOV,9,7,8,4,6
2017-05-04,TROX,7,1,5,8,2
2017-05-04,HOS,1,2,6,1,1
2017-05-04,TROW,7,9,6,6,8
2017-05-04,TROV,4,1,5,1,1
2017-05-04,NWS,5,4,8,6,3
2017-05-04,KELYB,7,7,9,6,8
2017-05-04,KELYA,7,7,9,6,8
2017-05-04,NDSN,5,8,4,7,7
2017-05-04,IDXG,9,1,1,4,3
2017-05-04,EVHC,2,2,5,1,2
2017-05-04,NWY,3,6,5,2,2
2017-05-04,IDXX,9,8,2,8,7
2017-05-04,AEHR,9,5,1,2,3
2017-05-04,ICLR,5,9,7,9,8
2017-05-04,AMX,2,5,7,2,8
2017-05-04,FIS,9,4,3,3,8
2017-05-04,FIT,1,7,6,5,4
2017-05-04,ADTN,3,8,6,6,4
2017-05-04,FIX,4,8,8,9,5
2017-05-04,FIG,3,9,7,5,5
2017-05-04,CLWT,1,4,7,5,1
2017-05-04,FII,4,9,8,7,4
2017-05-04,AMS,7,1,9,8,2
2017-05-04,WKHS,2,1,1,5,2
2017-05-04,OXFD,7,4,1,7,2
2017-05-04,CHKP,2,9,4,6,6
2017-05-04,CHKE,1,9,7,3,8
2017-05-04,ORN,9,1,7,8,8
2017-05-04,FSLR,9,5,6,1,9
2017-05-04,MAGS,4,7,9,7,1
2017-05-04,WPPGY,3,5,7,6,3
2017-05-04,TGLS,4,5,7,7,4
2017-05-04,DSX,3,1,2,1,1
2017-05-04,MRIN,2,7,6,9,2
2017-05-04,DSW,1,9,9,3,8
2017-05-04,DST,4,8,6,5,5
2017-05-04,DSS,1,2,6,9,1
2017-05-04,COOL,8,5,1,1,1
2017-05-04,EPAY,1,3,2,6,8
2017-05-04,LMOS,6,6,3,3,5
2017-05-04,EDUC,2,5,5,8,9
2017-05-04,EPAM,2,9,4,6,8
2017-05-04,AUO,9,4,9,8,9
2017-05-04,CBPX,6,6,8,9,4
2017-05-04,CBPO,2,9,3,6,9
2017-05-04,GNCMA,2,2,3,4,9
2017-05-04,XHR,5,6,8,8,8
2017-05-04,SOFO,7,6,2,6,2
2017-05-04,BJRI,1,7,6,8,9
2017-05-04,CERN,9,9,3,8,9
2017-05-04,NCLH,1,3,4,8,9
2017-05-04,CERS,2,3,1,3,6
2017-05-04,RGCO,3,4,4,7,8
2017-05-04,VFC,9,9,7,4,3
2017-05-04,WTR,6,4,3,4,6
2017-05-04,WTS,3,5,7,8,4
2017-05-04,WTT,4,7,7,1,8
2017-05-04,WTW,4,5,5,3,9
2017-05-04,WTI,8,2,1,3,1
2017-05-04,LAKE,7,8,9,8,8
2017-05-04,IVAC,8,4,2,9,8
2017-05-04,OFLX,8,9,3,6,9
2017-05-04,RTN,5,7,6,7,7
2017-05-04,RTK,9,3,5,1,6
2017-05-04,SEIC,2,9,4,7,5
2017-05-04,ALNY,1,2,1,1,9
2017-05-04,HCCI,8,6,7,8,9
2017-05-04,G,3,8,6,6,7
2017-05-04,SALM,6,2,7,3,8
2017-05-04,CCLP,7,1,6,2,1
2017-05-04,NVCN,1,3,2,1,3
2017-05-04,ISR,5,3,1,1,7
2017-05-04,PCOM,3,8,8,3,9
2017-05-04,TNAV,8,6,2,1,6
2017-05-04,JKS,3,7,5,5,7
2017-05-04,EZPW,8,7,9,6,8
2017-05-04,PVH,9,7,8,6,3
2017-05-04,MZOR,9,6,1,5,9
2017-05-04,IRMD,1,9,9,8,8
2017-05-04,FRD,7,5,6,1,1
2017-05-04,FRO,1,5,7,7,3
2017-05-04,FRP,6,7,8,8,3
2017-05-04,HMSY,9,8,4,5,4
2017-05-04,SNMX,8,7,2,4,1
2017-05-04,UUU,9,3,7,5,8
2017-05-04,DO,6,2,3,1,1
2017-05-04,DL,4,9,8,8,3
2017-05-04,SWM,6,7,8,3,5
2017-05-04,DK,2,2,8,1,6
2017-05-04,SWN,1,1,4,3,1
2017-05-04,DF,2,5,9,9,3
2017-05-04,DG,2,8,8,6,9
2017-05-04,DE,7,4,8,2,5
2017-05-04,MGLN,2,4,8,4,5
2017-05-04,SWX,5,4,6,6,4
2017-05-04,PPSI,4,2,3,4,3
2017-05-04,DY,8,6,7,9,9
2017-05-04,DV,5,7,7,3,8
2017-05-04,SAEX,5,2,7,7,1
2017-05-04,DQ,8,4,9,9,6
2017-05-04,TGS,6,7,4,7,5
2017-05-04,TGP,5,3,4,3,1
2017-05-04,TGT,1,7,9,5,8
2017-05-04,TGB,9,2,5,1,1
2017-05-04,TGC,1,1,2,2,2
2017-05-04,TGA,8,2,2,1,1
2017-05-04,ATVI,9,7,3,6,8
2017-05-04,TGD,9,6,9,5,9
2017-05-04,TGH,3,4,3,1,4
2017-05-04,TGI,5,1,3,1,4
2017-05-04,MYGN,4,9,7,3,9
2017-05-04,DHI,9,8,9,7,3
2017-05-04,INTL,7,3,4,8,5
2017-05-04,INTU,9,9,3,6,9
2017-05-04,INTT,7,9,9,7,9
2017-05-04,DHX,8,4,7,3,1
2017-05-04,DHT,2,4,8,7,8
2017-05-04,XCRA,8,7,6,7,9
2017-05-04,DHR,4,7,4,4,2
2017-05-04,GIGM,9,4,4,5,4
2017-05-04,GIGA,1,3,2,3,3
2017-05-04,WG,1,2,3,2,2
2017-05-04,WD,3,7,8,7,9
2017-05-04,WM,7,4,5,8,5
2017-05-04,WK,8,7,1,8,8
2017-05-04,WU,4,5,5,2,3
2017-05-04,WR,5,4,4,6,2
2017-05-04,ULBI,2,7,9,8,8
2017-05-04,WY,9,4,3,6,3
2017-05-04,RIO,6,7,8,4,2
2017-05-04,RIG,1,5,9,4,1
2017-05-04,RIC,6,7,4,9,8
2017-05-04,TRMR,3,6,3,8,9
2017-05-04,HAL,1,1,2,1,1
2017-05-04,HAE,4,5,4,4,8
2017-05-04,MSFT,9,8,4,3,8
2017-05-04,TRMB,5,7,3,5,9
2017-05-04,RNET,7,6,6,4,2
2017-05-04,HAS,9,9,6,8,5
2017-05-04,PAM,8,1,3,8,8
2017-05-04,HELE,2,6,6,4,4
2017-05-04,CNSL,3,1,4,4,3
2017-05-04,IIVI,7,7,6,5,1
2017-05-04,ADVM,1,3,4,1,7
2017-05-04,CLUB,9,1,7,2,9
2017-05-04,FOX,7,8,7,4,1
2017-05-04,SYUT,2,4,3,7,6
2017-05-04,FOE,6,4,5,5,9
2017-05-04,PDFS,9,9,3,2,1
2017-05-04,CPIX,2,6,2,4,1
2017-05-04,CASM,2,4,2,9,1
2017-05-04,PZZA,9,8,4,7,3
2017-05-04,CASY,4,5,7,8,4
2017-05-04,WWW,7,7,8,3,4
2017-05-04,COMM,6,5,6,9,4
2017-05-04,FEYE,2,2,1,8,9
2017-05-04,FCEL,8,1,7,1,1
2017-05-04,VDSI,4,9,6,3,9
2017-05-04,QADB,9,8,4,2,8
2017-05-04,FHCO,8,8,3,1,6
2017-05-04,SQBG,7,2,5,6,1
2017-05-04,CBRL,2,9,7,8,7
2017-05-04,MESO,1,2,1,6,9
2017-05-04,BNSO,8,8,9,9,8
2017-05-04,RRGB,1,3,4,2,9
2017-05-04,CRZO,9,1,1,4,1
2017-05-04,ONTX,1,4,6,6,1
2017-05-04,CGNX,8,9,2,7,8
2017-05-04,SODA,9,9,6,8,9
2017-05-04,CGNT,9,6,7,6,5
2017-05-04,MBII,9,2,1,9,1
2017-05-04,MDSO,7,7,2,9,9
2017-05-04,AMKR,6,5,8,5,6
2017-05-04,MCFT,4,5,8,9,8
2017-05-04,EFII,4,6,6,4,2
2017-05-04,APLP,8,1,7,7,2
2017-05-04,USDP,9,2,7,9,9
2017-05-04,NCTY,1,2,1,5,7
2017-05-04,RAND,4,4,2,1,3
2017-05-04,ISRL,6,6,3,8,2
2017-05-04,AGYS,3,6,3,7,9
2017-05-04,RRD,9,5,4,1,9
2017-05-04,RRC,1,1,2,1,1
2017-05-04,MCRN,2,3,5,8,2
2017-05-04,MCRI,5,8,6,6,6
2017-05-04,NYLD,3,2,7,6,2
2017-05-04,QVCA,1,6,8,3,7
2017-05-04,QVCB,1,6,8,4,8
2017-05-04,BCOM,1,5,8,4,8
2017-05-04,BCOV,9,6,3,5,6
2017-05-04,ARLZ,4,1,1,2,1
2017-05-04,BCOR,9,3,4,5,9
2017-05-04,NVMI,5,9,3,3,6
2017-05-04,USG,3,7,8,6,2
2017-05-04,GBDC,6,6,3,4,6
2017-05-04,USM,2,5,6,2,4
2017-05-04,LDOS,6,1,6,2,8
2017-05-04,VISI,6,3,7,7,7
2017-05-04,PCAR,2,6,8,3,5
2017-05-04,PXS,9,1,5,2,1
2017-05-04,PXD,1,3,2,2,1
2017-05-04,FPP,9,1,1,2,1
2017-05-04,IRCP,9,8,5,4,9
2017-05-04,AMTX,3,1,3,4,1
2017-05-04,SNOW,9,2,6,9,2
2017-05-04,AMTD,3,6,7,5,7
2017-05-04,PNRA,1,8,3,5,9
2017-05-04,JBHT,3,8,6,6,2
2017-05-04,POPE,4,2,3,1,5
2017-05-04,SIX,2,8,3,4,8
2017-05-04,SIG,9,8,9,6,3
2017-05-04,SIF,8,2,5,1,2
2017-05-04,MGNX,6,6,1,1,9
2017-05-04,SID,8,4,9,7,1
2017-05-04,SIM,5,6,3,1,1
2017-05-04,ACET,5,5,7,5,7
2017-05-04,TAT,9,3,8,5,7
2017-05-04,TAP,9,3,6,8,2
2017-05-04,AVAV,3,6,3,4,7
2017-05-04,TAX,3,8,9,6,6
2017-05-04,TAC,3,2,9,7,1
2017-05-04,TAL,3,8,2,7,9
2017-05-04,FLXS,4,9,9,7,9
2017-05-04,COVS,9,6,3,5,3
2017-05-04,KBH,8,6,9,5,7
2017-05-04,KBR,4,1,3,1,7
2017-05-04,NFG,7,3,4,5,1
2017-05-04,IGLD,6,1,8,3,9
2017-05-04,K,7,5,4,4,2
2017-05-04,BCRX,1,2,1,3,1
2017-05-04,TRCO,5,4,6,8,7
2017-05-04,HCA,2,8,8,8,2
2017-05-04,ORLY,7,8,5,8,2
2017-05-04,BLK,6,6,3,4,5
2017-05-04,TRCH,7,1,1,2,3
2017-05-04,PRGO,1,1,1,2,9
2017-05-04,PRGS,6,6,3,2,6
2017-05-04,PRGX,5,6,6,5,6
2017-05-04,EVLV,8,5,6,5,8
2017-05-04,IDTI,5,8,5,8,3
2017-05-04,RBCN,1,2,7,1,3
2017-05-04,OUT,5,4,4,5,2
2017-05-04,LTS,4,7,8,3,8
2017-05-04,LQDT,8,8,6,4,6
2017-05-04,FMX,2,6,8,2,3
2017-05-04,FMS,4,5,6,5,9
2017-05-04,MANH,2,9,4,9,2
2017-05-04,FMI,9,5,1,6,9
2017-05-04,FMC,7,5,4,4,4
2017-05-04,TSCO,3,9,8,7,1
2017-05-04,INSY,1,9,5,3,8
2017-05-04,BKEP,9,3,4,2,6
2017-05-04,HIHO,2,8,3,7,2
2017-05-04,FLEX,5,3,9,6,1
2017-05-04,AKRX,4,8,4,8,9
2017-05-04,GLAD,6,7,7,4,7
2017-05-04,WSTG,4,7,8,4,7
2017-05-04,WSTC,3,7,8,5,3
2017-05-04,WSTL,7,5,7,8,8
2017-05-04,ZNH,5,4,9,9,2
2017-05-04,PLUG,1,1,1,8,9
2017-05-04,AOSL,6,7,6,8,2
2017-05-04,PLUS,5,8,9,5,9
2017-05-04,AYI,9,9,5,8,6
2017-05-04,AYA,2,3,5,8,8
2017-05-04,KPTI,1,3,1,1,1
2017-05-04,AYR,4,4,5,7,3
2017-05-04,EGHT,6,7,2,4,1
2017-05-04,LAD,4,7,9,6,9
2017-05-04,PRXL,5,7,7,8,8
2017-05-04,GDDY,2,1,4,9,7
2017-05-04,ISNS,7,8,7,9,4
2017-05-04,GATX,3,6,6,7,3
2017-05-04,DXYN,5,4,9,2,9
2017-05-04,ECYT,2,4,5,1,2
2017-05-04,ONVI,5,7,5,5,9
2017-05-04,DENN,4,8,4,5,3
2017-05-04,LNCE,5,3,4,3,1
2017-05-04,IIIN,4,9,8,9,2
2017-05-04,EL,9,9,4,5,8
2017-05-04,EE,5,4,5,6,6
2017-05-04,ED,7,3,6,6,5
2017-05-04,EA,9,8,4,9,8
2017-05-04,EC,6,3,4,1,2
2017-05-04,EW,9,9,2,7,9
2017-05-04,EV,3,9,7,6,2
2017-05-04,ES,7,4,5,6,4
2017-05-04,AMID,9,1,2,7,2
2017-05-04,WPX,8,1,4,1,1
2017-05-04,WPZ,9,1,5,6,2
2017-05-04,WPT,7,9,7,7,3
2017-05-04,EFOI,8,6,6,4,1
2017-05-04,AIMC,4,5,5,3,9
2017-05-04,UUUU,9,2,2,4,1
2017-05-04,PWR,4,5,8,3,2
2017-05-04,GPRO,9,6,2,2,4
2017-05-04,RPD,5,5,1,7,9
2017-05-04,RPM,3,7,5,7,2
2017-05-04,HXL,2,7,6,6,2
2017-05-04,KEQU,7,8,9,6,5
2017-05-04,BOX,7,4,1,9,8
2017-05-04,UQM,6,3,1,4,9
2017-05-04,PZN,2,9,6,4,3
2017-05-04,PZE,8,5,7,6,8
2017-05-04,PZG,9,2,1,1,2
2017-05-04,CLNE,8,3,8,9,2
2017-05-04,EXEL,9,4,2,9,8
2017-05-04,FVE,5,5,9,4,2
2017-05-04,CLNT,9,3,4,1,9
2017-05-04,RDNT,4,2,7,3,9
2017-05-04,TIVO,6,3,4,3,8
2017-05-04,ZIXI,2,9,3,6,9
2017-05-04,VIA,5,7,8,2,1
2017-05-04,BRCD,6,7,5,3,4
2017-05-04,GHM,3,8,8,1,3
2017-05-04,SKY,2,4,5,8,1
2017-05-04,SKX,1,9,9,9,2
2017-05-04,CTAS,9,9,4,8,2
2017-05-04,SKM,5,7,8,4,2
2017-05-04,GES,7,8,3,1,8
2017-05-04,TCX,8,8,3,9,9
2017-05-04,TCS,1,4,6,5,7
2017-05-04,TCP,4,5,5,7,5
2017-05-04,GEF,5,4,7,5,8
2017-05-04,GEO,1,2,4,5,1
2017-05-04,GEN,3,8,5,6,7
2017-05-04,GEL,5,3,4,7,2
2017-05-04,DDS,1,8,9,3,9
2017-05-04,KAMN,4,7,8,5,4
2017-05-04,COTY,8,4,2,2,8
2017-05-04,DDC,1,3,5,1,5
2017-05-04,DDE,2,3,9,3,7
2017-05-04,DDD,6,5,3,5,9
2017-05-04,QEP,7,2,5,3,1
2017-05-04,ATRC,3,5,1,4,9
2017-05-04,HEP,6,1,6,6,6
2017-05-04,HES,1,3,2,1,3
2017-05-04,ATRI,5,9,3,4,9
2017-05-04,ATRO,3,8,7,5,5
2017-05-04,ATRS,8,5,1,6,7
2017-05-04,HEB,9,2,1,2,9
2017-05-04,BCPC,6,6,3,5,3
2017-05-04,HEI,4,8,4,7,1
2017-05-04,TISA,7,4,2,1,2
2017-05-04,TISI,2,3,5,2,8
2017-05-04,ARCW,5,3,6,2,1
2017-05-04,ARCX,8,4,7,7,8
2017-05-04,ARCB,1,2,9,4,5
2017-05-04,ARCC,5,7,7,4,2
2017-05-04,ARCO,9,3,8,6,9
2017-05-04,ARCH,8,6,5,8,4
2017-05-04,ARCI,6,4,9,5,1
2017-05-04,FRPT,4,4,2,9,9
2017-05-04,FRPH,2,4,4,6,9
2017-05-04,LVS,7,7,5,4,8
2017-05-04,SFLY,3,7,6,9,9
2017-05-04,LLNW,6,5,2,2,9
2017-05-04,CPTA,8,3,8,5,4
2017-05-04,SVT,7,6,9,5,2
2017-05-04,JASN,2,3,5,3,9
2017-05-04,JASO,1,3,9,8,9
2017-05-04,BKCC,9,9,7,4,5
2017-05-04,MYL,9,2,4,2,2
2017-05-04,MYE,2,5,5,3,3
2017-05-04,MRCY,2,4,2,8,7
2017-05-04,MRCC,7,7,4,6,6
2017-05-04,CQP,1,1,1,8,3
2017-05-04,TGTX,1,2,1,1,2
2017-05-04,SERV,2,3,4,5,2
2017-05-04,LOPE,2,9,4,7,8
2017-05-04,LMAT,3,9,2,9,9
2017-05-04,ODFL,2,9,5,6,7
2017-05-04,ANGO,5,5,6,4,1
2017-05-04,ANGI,1,5,2,6,9
2017-05-04,HTLD,5,9,7,5,4
2017-05-04,SOHU,9,7,4,1,4
2017-05-04,QBAK,9,6,2,7,9
2017-05-04,BBBY,3,9,9,3,2
2017-05-04,TVPT,4,5,6,6,9
2017-05-04,SMI,3,4,6,6,3
2017-05-04,BOOT,5,4,8,6,9
2017-05-04,EBAY,5,7,6,6,3
2017-05-04,NAUH,7,7,3,1,8
2017-05-04,SSTK,9,9,4,5,4
2017-05-04,BOOM,7,4,4,3,8
2017-05-04,HRZN,7,4,8,3,7
2017-05-04,VHI,9,3,4,9,6
2017-05-04,VHC,1,2,1,2,9
2017-05-04,TXN,7,9,5,9,3
2017-05-04,GLYC,8,4,1,1,1
2017-05-04,SBOT,1,2,5,7,2
2017-05-04,DWCH,8,7,2,5,9
2017-05-04,TXT,4,4,8,7,3
2017-05-04,IBIO,4,1,1,1,2
2017-05-04,SKLN,1,3,1,4,2
2017-05-04,VSAT,3,4,3,7,6
2017-05-04,ALDW,1,6,8,2,2
2017-05-04,OESX,7,4,6,2,1
2017-05-04,HZO,4,7,9,7,2
2017-05-04,DYSL,4,6,8,6,9
2017-05-04,WRK,9,3,6,2,8
2017-05-04,DORM,8,9,6,7,7
2017-05-04,ALG,7,8,8,6,8
2017-05-04,CMPR,2,4,3,4,2
2017-05-04,DRYS,2,4,7,1,1
2017-05-04,KATE,2,9,8,9,1
2017-05-04,FTR,1,1,6,3,1
2017-05-04,NTES,9,9,6,7,3
2017-05-04,ELSE,4,8,2,2,3
2017-05-04,THRM,1,8,8,6,5
2017-05-04,IMAX,2,8,3,2,1
2017-05-04,FTI,1,5,5,1,2
2017-05-04,FTK,8,3,2,1,3
2017-05-04,BLFS,1,5,1,3,6
2017-05-04,PERI,8,7,8,4,2
2017-05-04,GIMO,9,8,4,9,2
2017-05-04,ACIW,3,7,6,8,5
2017-05-04,SMP,7,8,8,7,9
2017-05-04,FH,1,1,2,5,1
2017-05-04,FI,4,7,2,1,1
2017-05-04,FL,9,9,8,8,8
2017-05-04,MDC,5,6,3,6,7
2017-05-04,GGG,1,9,3,3,9
2017-05-04,GGB,6,2,7,2,1
2017-05-04,MDU,6,4,6,7,2
2017-05-04,REFR,1,3,1,1,2
2017-05-04,JEC,1,7,8,4,4
2017-05-04,ILMN,9,9,2,8,9
2017-05-04,EKSO,1,3,1,8,1
2017-05-04,MXWL,1,6,2,1,7
2017-05-04,YY,1,9,8,6,9
2017-05-04,MITL,5,3,7,7,7
2017-05-04,MITK,1,8,2,8,9
2017-05-04,EPZM,1,2,1,2,8
2017-05-04,KFY,1,6,6,3,9
2017-05-04,NSYS,5,3,9,5,2
2017-05-04,ABB,3,7,7,4,8
2017-05-04,ABC,1,2,8,8,2
2017-05-04,ABG,7,7,9,7,7
2017-05-04,ABM,6,3,5,3,6
2017-05-04,ABT,9,7,5,5,3
2017-05-04,ABX,6,4,9,8,1
2017-05-04,BHI,3,3,6,1,3
2017-05-04,BHE,8,5,9,3,5
2017-05-04,TRGP,7,2,5,3,2
2017-05-04,BHP,8,4,4,1,2
2017-05-04,PRCP,9,6,3,3,6
2017-05-04,GOOGL,9,9,3,7,9
2017-05-04,ARAY,3,3,3,8,1
2017-05-04,IPDN,9,4,3,9,1
2017-05-04,SPSC,6,8,3,8,2
2017-05-04,LPX,5,6,8,8,5
2017-05-04,LPL,5,6,9,4,2
2017-05-04,LPI,9,1,1,3,1
2017-05-04,LPG,1,2,7,9,1
2017-05-04,BWEN,8,2,9,9,1
2017-05-04,ROSG,9,2,7,9,1
2017-05-04,GURE,6,8,5,8,9
2017-05-04,ROST,9,9,7,7,6
2017-05-04,VLGEA,7,8,9,5,6
2017-05-04,IHT,8,1,1,2,2
2017-05-04,QIWI,3,9,6,4,9
2017-05-04,CSL,4,8,7,7,2
2017-05-04,CSX,7,7,4,4,9
2017-05-04,CSU,1,9,3,3,7
2017-05-04,CSV,3,2,5,6,7
2017-05-04,CSS,3,8,8,6,8
2017-05-04,VOXX,1,3,5,2,9
2017-05-04,OIS,2,5,5,1,1
2017-05-04,XLRN,1,3,1,3,9
2017-05-04,ORAN,3,4,6,3,5
2017-05-04,LRAD,6,8,3,1,9
2017-05-04,CSBR,1,6,1,7,1
2017-05-04,FSTR,7,2,7,1,9
2017-05-04,DMLP,9,9,4,5,2
2017-05-04,MNGA,2,1,1,7,1
2017-05-04,ENPH,8,4,2,1,1
2017-05-04,ANET,7,9,2,8,8
2017-05-04,GBR,7,1,5,1,1
2017-05-04,EGLE,3,1,2,1,1
2017-05-04,OGXI,1,5,6,1,2
2017-05-04,OTTR,7,2,5,6,6
2017-05-04,CVTI,1,6,9,6,7
2017-05-04,SSRI,8,4,9,9,1
2017-05-04,FB,9,9,2,9,8
2017-05-04,MLSS,8,5,1,1,2
2017-05-04,GBX,8,8,9,8,5
2017-05-04,CYAN,2,5,4,2,5
2017-05-04,BUFF,2,9,3,7,8
2017-05-04,NWPX,6,2,4,2,2
2017-05-04,BDSI,1,5,1,2,4
2017-05-04,PKOH,2,4,9,2,8
2017-05-04,IOSP,6,8,7,4,7
2017-05-04,VNDA,9,7,2,9,9
2017-05-04,MYRG,7,5,9,3,5
2017-05-04,SONC,3,9,6,8,9
2017-05-04,PRLB,1,9,3,3,9
2017-05-04,SONS,5,7,5,7,9
2017-05-04,TMHC,4,6,9,4,8
2017-05-04,RATE,1,4,4,2,8
2017-05-04,LWAY,8,8,5,7,2
2017-05-04,MKSI,7,7,4,7,9
2017-05-04,S,7,2,4,8,1
2017-05-04,CMTL,8,3,5,2,6
2017-05-04,NDLS,2,3,2,2,4
2017-05-04,CMRX,1,4,5,2,1
2017-05-04,UMC,6,2,6,4,5
2017-05-04,CMRE,7,3,9,5,9
2017-05-04,PNTR,7,8,8,7,5
2017-05-04,OLN,6,1,6,2,2
2017-05-04,JKHY,3,9,3,8,8
2017-05-04,OCLR,7,7,5,9,1
2017-05-04,IMGN,7,5,1,3,9
2017-05-04,EXAC,7,7,4,2,9
2017-05-04,BLDR,9,4,8,9,8
2017-05-04,BLDP,9,3,2,6,9
2017-05-04,EXAS,9,3,1,8,9
2017-05-04,HCKT,3,9,5,9,7
2017-05-04,SMTC,8,8,4,8,6
2017-05-04,CYCC,6,2,5,4,1
2017-05-04,SOL,1,1,6,5,4
2017-05-04,SON,5,7,8,7,4
2017-05-04,MBT,2,8,8,2,1
2017-05-04,TZOO,8,9,8,9,3
2017-05-04,JCP,2,5,8,9,3
2017-05-04,JCS,8,7,5,3,9
2017-05-04,ESLT,3,6,6,6,6
2017-05-04,BBRG,7,7,4,2,9
2017-05-04,JCI,5,3,3,1,5
2017-05-04,SWFT,7,8,8,5,9
2017-05-04,LFGR,1,6,2,4,9
2017-05-04,ETR,1,1,3,2,5
2017-05-04,KMB,7,7,5,8,2
2017-05-04,RLOG,3,1,5,6,8
2017-05-04,QTNT,1,3,1,2,5
2017-05-04,HSII,1,8,9,8,1
2017-05-04,KHC,4,3,3,7,3
2017-05-04,HSIC,9,8,5,6,7
2017-05-04,SCON,1,2,5,1,9
2017-05-04,TREC,5,5,6,4,3
2017-05-04,BVX,5,6,2,9,3
2017-05-04,TREE,4,9,2,9,9
2017-05-04,TREX,7,9,3,9,9
2017-05-04,PRAH,3,4,3,8,5
2017-05-04,CINR,6,8,9,6,3
2017-05-04,PRAN,4,4,5,8,1
2017-05-04,ARGS,1,1,4,3,2
2017-05-04,WPRT,3,1,2,9,9
2017-05-04,ICFI,6,7,8,6,9
2017-05-04,IDRA,1,2,1,9,1
2017-05-04,OSK,6,6,8,4,4
2017-05-04,KINS,6,8,9,9,2
2017-05-04,OSN,1,5,5,4,6
2017-05-04,OSG,9,1,8,6,2
2017-05-04,CPAH,2,5,2,5,2
2017-05-04,CPAC,5,8,5,6,2
2017-05-04,LRN,7,7,8,4,8
2017-05-04,MDLZ,3,5,3,2,7
2017-05-04,FAST,8,9,5,4,1
2017-05-04,CAKE,2,8,7,7,8
2017-05-04,SIEB,7,7,1,4,9
2017-05-04,YNDX,8,9,3,4,9
2017-05-04,CUR,1,1,1,3,3
2017-05-04,TMST,3,1,4,1,1
2017-05-04,CUB,4,4,6,2,7
2017-05-04,CUO,8,6,9,9,3
2017-05-04,CUK,5,4,6,9,9
2017-05-04,CUI,1,5,3,3,1
2017-05-04,CXDC,8,5,9,3,4
2017-05-04,CDW,5,6,7,8,6
2017-05-04,SRAX,9,4,2,6,1
2017-05-04,MCEP,4,1,6,2,2
2017-05-04,JYNT,1,6,1,5,2
2017-05-04,PNRG,8,5,8,6,1
2017-05-04,ENVA,8,8,9,3,6
2017-05-04,ISDR,7,9,7,8,3
2017-05-04,CEL,5,4,8,2,2
2017-05-04,GV,6,8,9,9,8
2017-05-04,GT,7,5,9,8,6
2017-05-04,GS,1,2,3,4,3
2017-05-04,GG,5,2,5,6,1
2017-05-04,GE,9,3,4,5,3
2017-05-04,GD,7,7,6,7,7
2017-05-04,RDWR,2,8,4,2,8
2017-05-04,GM,4,4,8,8,3
2017-05-04,AMCX,1,7,8,4,2
2017-05-04,AMCN,1,6,8,1,1
2017-05-04,JBSS,4,8,8,5,3
2017-05-04,TOPS,1,1,7,4,1
2017-05-04,VLO,1,7,9,5,3
2017-05-04,MPLX,4,5,3,3,2
2017-05-04,TTS,2,8,3,7,8
2017-05-04,TTM,6,7,9,4,3
2017-05-04,TTC,2,9,4,7,8
2017-05-04,VLP,3,7,4,9,2
2017-05-04,PFIE,8,9,6,1,1
2017-05-04,PFIN,8,8,6,2,2
2017-05-04,USLM,7,9,7,5,3
2017-05-04,ZX,8,4,4,1,9
2017-05-04,BBOX,2,3,7,3,9
2017-05-04,GARS,3,6,7,4,7
2017-05-04,APDN,1,6,1,4,7
2017-05-04,PBMD,1,1,1,1,6
2017-05-04,RAVN,9,9,4,4,8
2017-05-04,RAVE,8,4,2,1,5
2017-05-04,VSEC,4,3,8,4,8
2017-05-04,ATEC,9,6,2,8,6
2017-05-04,ATEN,9,6,3,9,1
2017-05-04,ONP,9,5,9,3,1
2017-05-04,IIN,1,4,3,4,7
2017-05-04,III,4,3,5,1,7
2017-05-04,FORM,8,3,2,6,3
2017-05-04,NTWK,9,5,8,5,2
2017-05-04,FORD,6,7,4,7,2
2017-05-04,RDHL,1,2,5,8,5
2017-05-04,STNG,2,2,6,2,8
2017-05-04,FORR,7,9,6,8,8
2017-05-04,NTAP,9,8,7,4,2
2017-05-04,VCRA,8,5,2,6,5
2017-05-04,GIII,2,7,9,3,8
2017-05-04,SAH,1,6,8,5,5
2017-05-04,SAM,2,9,7,5,3
2017-05-04,XENT,6,7,1,9,9
2017-05-04,SAR,8,4,6,5,6
2017-05-04,XENE,7,4,5,1,3
2017-05-04,SAP,5,8,3,4,7
2017-05-04,CHA,4,6,8,3,3
2017-05-04,CHD,7,8,4,7,3
2017-05-04,CHE,2,9,5,7,9
2017-05-04,JAX,1,6,7,8,7
2017-05-04,CHH,1,9,3,6,8
2017-05-04,ESNC,4,1,5,2,7
2017-05-04,CHK,2,2,3,3,1
2017-05-04,CHL,4,9,8,4,2
2017-05-04,ESND,3,4,9,3,9
2017-05-04,CHS,2,9,9,6,8
2017-05-04,CHT,4,8,6,3,5
2017-05-04,CHU,1,5,6,2,2
2017-05-04,FELE,7,8,7,6,2
2017-05-04,PESI,9,1,3,3,9
2017-05-04,DBD,7,1,3,3,2
2017-05-04,WSCI,6,3,8,1,2
2017-05-04,PTEN,7,1,4,1,1
2017-05-04,OBAS,6,9,5,4,4
2017-05-04,HSKA,8,8,2,9,1
2017-05-04,GCI,8,6,9,2,8
2017-05-04,GCO,2,9,9,5,6
2017-05-04,W,1,4,2,2,9
2017-05-04,ROIAK,9,6,7,8,1
2017-05-04,BTX,2,2,2,6,2
2017-05-04,CBAK,7,1,1,1,8
2017-05-04,BTE,4,1,4,2,1
2017-05-04,BTG,3,2,5,8,1
2017-05-04,TIME,7,5,5,5,1
2017-05-04,BTN,8,7,6,9,8
2017-05-04,BTI,2,8,4,4,7
2017-05-04,SCMP,4,7,7,6,2
2017-05-04,CNET,7,4,3,3,9
2017-05-04,IPHS,9,7,9,7,1
2017-05-04,FMSA,9,2,2,1,1
2017-05-04,LGND,2,5,2,5,8
2017-05-04,IPHI,8,4,3,9,1
2017-05-04,AREX,9,1,4,2,1
2017-05-04,WAIR,8,4,9,5,1
2017-05-04,NUE,5,5,8,8,4
2017-05-04,IKNX,4,6,5,1,1
2017-05-04,GMED,1,9,5,5,7
2017-05-04,ASM,7,6,7,4,1
2017-05-04,WYNN,7,4,2,2,8
2017-05-04,NPTN,7,5,7,8,1
2017-05-04,MMYT,8,5,1,3,9
2017-05-04,CAMP,1,6,4,5,9
2017-05-04,SPWH,2,5,8,5,1
2017-05-04,CWT,7,3,3,5,3
2017-05-04,CBM,2,9,6,9,6
2017-05-04,SPWR,9,1,3,1,9
2017-05-04,NICK,2,7,9,4,2
2017-05-04,MOCO,4,9,4,8,9
2017-05-04,NICE,6,7,3,5,3
2017-05-04,ENTA,8,9,2,5,4
2017-05-04,ENTG,8,7,5,7,8
2017-05-04,AAPL,7,8,6,4,6
2017-05-04,ENTL,7,6,1,5,9
2017-05-04,SRCL,9,5,4,3,8
2017-05-04,CDNS,4,9,3,5,8
2017-05-04,CDNA,5,3,1,2,1
2017-05-04,WEC,5,3,5,6,4
2017-05-04,WEB,2,2,5,6,6
2017-05-04,SIGM,4,8,6,3,9
2017-05-04,WEN,3,5,4,9,9
2017-05-04,WES,8,5,7,8,2
2017-05-04,PSDV,8,5,1,3,4
2017-05-04,SHAK,1,6,3,8,7
2017-05-04,WEX,8,2,2,2,5
2017-05-04,NVRO,8,3,1,9,4
2017-05-04,VRNT,3,3,3,2,2
2017-05-04,AMAG,2,6,8,5,1
2017-05-04,VRNS,8,7,2,7,6
2017-05-04,AMAT,9,9,6,9,8
2017-05-04,SSNC,2,2,3,5,8
2017-05-04,SSNI,1,3,2,6,8
2017-05-04,CRDS,8,6,5,2,9
2017-05-04,NFEC,9,1,3,1,6
2017-05-04,BLL,9,1,3,2,7
2017-05-04,BSPM,9,3,6,1,1
2017-05-04,VRS,9,6,9,3,2
2017-05-04,TORM,9,3,9,9,6
2017-05-04,VRX,9,1,5,4,2
2017-05-04,VRA,1,9,9,3,8
2017-05-04,RUSHB,6,4,9,4,9
2017-05-04,RUSHA,5,4,9,4,9
2017-05-04,NFX,1,2,1,5,2
2017-05-04,WERN,2,7,7,4,8
2017-05-04,VUZI,3,2,1,1,7
2017-05-04,SORL,7,7,5,7,7
2017-05-04,USNA,4,9,8,6,8
2017-05-04,OSUR,6,9,3,9,8
2017-05-04,MFCB,9,2,9,2,8
2017-05-04,QTWO,5,5,1,8,9
2017-05-04,KONA,2,3,3,2,2
2017-05-04,HPQ,7,8,8,3,8
2017-05-04,TACT,1,9,8,6,9
2017-05-04,KONE,8,3,6,1,1
2017-05-04,HPJ,8,5,8,9,9
2017-05-04,BCEI,9,1,1,3,9
2017-05-04,HPE,5,5,8,7,8
2017-05-04,MTBC,3,4,2,1,9
2017-05-04,SGOC,1,2,2,1,1
2017-05-04,UIS,5,5,8,4,1
2017-05-04,D,4,3,3,6,3
2017-05-04,RXN,4,4,5,3,9
2017-05-04,HCOM,1,3,6,4,7
2017-05-04,CLFD,7,9,6,8,1
2017-05-04,STLD,7,5,8,9,5
2017-05-04,SANM,6,5,9,6,1
2017-05-04,LECO,5,8,5,6,7
2017-05-04,STLY,3,6,7,2,9
2017-05-04,HY,3,5,6,2,9
2017-05-04,HP,1,6,5,1,1
2017-05-04,HW,4,5,4,6,5
2017-05-04,HK,1,1,1,5,1
2017-05-04,HI,6,6,6,8,6
2017-05-04,HL,8,4,6,9,3
2017-05-04,HA,6,7,9,8,9
2017-05-04,CTIB,3,5,7,5,9
2017-05-04,HD,7,8,5,8,8
2017-05-04,HE,3,2,7,7,4
2017-05-04,SCL,8,6,8,6,9
2017-05-04,SCI,2,2,5,5,8
2017-05-04,SCG,5,4,5,5,3
2017-05-04,MNI,9,2,7,4,9
2017-05-04,SCX,8,4,6,1,2
2017-05-04,ACOR,1,3,3,2,1
2017-05-04,SCS,2,8,9,7,8
2017-05-04,PBR,9,1,8,6,1
2017-05-04,PBF,2,4,9,8,3
2017-05-04,PBA,6,2,3,5,3
2017-05-04,YHOO,9,5,3,2,8
2017-05-04,PBI,5,1,8,3,9
2017-05-04,PBH,1,5,3,5,3
2017-05-04,FENG,1,7,4,2,2
2017-05-04,VVUS,5,6,4,9,2
2017-05-04,PRMW,7,1,2,4,2
2017-05-04,OBCI,7,9,9,9,9
2017-05-04,ADS,9,2,6,3,6
2017-05-04,ADP,5,6,4,5,2
2017-05-04,XELB,1,6,8,4,2
2017-05-04,GME,3,8,9,5,9
2017-05-04,ADK,9,1,7,9,2
2017-05-04,ADI,7,8,6,7,2
2017-05-04,RIGL,4,4,1,6,1
2017-05-04,BRS,5,1,4,1,1
2017-05-04,NSSC,7,8,5,8,8
2017-05-04,BRN,9,6,6,2,9
2017-05-04,DJCO,5,3,4,1,4
2017-05-04,BRC,6,8,7,9,7
2017-05-04,SCKT,1,8,8,9,3
2017-05-04,VET,8,1,3,2,1
2017-05-04,LNTH,9,7,8,9,9
2017-05-04,ARKR,4,7,9,5,6
2017-05-04,ESV,4,3,9,5,1
2017-05-04,ESP,7,9,9,2,4
2017-05-04,ESE,3,6,4,7,6
2017-05-04,ESL,7,6,7,4,8
2017-05-04,SMCI,4,7,8,7,2
2017-05-04,DSPG,7,8,6,9,8
2017-05-04,CECE,9,3,6,5,9
2017-05-04,CECO,9,6,4,8,9
2017-05-04,SHSP,5,7,2,4,5
2017-05-04,PYPL,9,6,4,4,9
2017-05-04,RFIL,9,7,7,1,9
2017-05-04,DAIO,9,9,8,9,3
2017-05-04,SREV,6,5,4,7,4
2017-05-04,CENTA,5,6,8,9,2
2017-05-04,GRMN,9,9,7,7,6
2017-05-04,DOOR,2,4,6,9,8
2017-05-04,WGL,5,6,4,8,4
2017-05-04,WGO,5,6,8,8,5
2017-05-04,JAKK,4,8,3,8,1
2017-05-04,TWIN,8,4,3,1,7
2017-05-04,WGP,4,5,5,9,2
2017-05-04,CHUY,1,8,5,8,8
2017-05-04,QNST,2,3,5,4,9
2017-05-04,SPLK,8,5,1,5,8
2017-05-04,SUMR,4,2,7,6,3
2017-05-04,HURN,4,6,7,3,9
2017-05-04,EBIX,8,8,3,5,7
2017-05-04,HURC,5,8,3,5,2
2017-05-04,XXII,1,2,1,3,8
2017-05-04,TLLP,4,4,5,8,3
2017-05-04,ELLI,5,9,2,7,4
2017-05-04,ELLO,4,3,3,2,4
2017-05-04,LTRX,8,7,5,8,1
2017-05-04,PAHC,3,7,6,8,9
2017-05-04,VPG,6,6,8,8,9
2017-05-04,WETF,1,9,5,4,1
2017-05-04,YPF,9,2,5,1,4
2017-05-04,PFMT,9,5,7,2,1
2017-05-04,MICT,9,2,3,1,8
2017-05-04,THC,2,4,4,6,6
2017-05-04,GERN,1,3,1,6,9
2017-05-04,ADMS,1,3,1,1,6
2017-05-04,ATAI,1,9,9,8,2
2017-05-04,TPC,9,4,9,5,3
2017-05-04,MRK,9,8,4,3,4
2017-05-04,HRS,9,7,6,4,3
2017-05-04,HRL,7,9,6,8,5
2017-05-04,HRI,9,2,5,2,4
2017-05-04,HRG,4,1,7,3,2
2017-05-04,HRC,6,5,4,7,8
2017-05-04,HRB,2,9,7,5,8
2017-05-04,HNNA,3,9,8,8,3
2017-05-04,MTDR,1,1,1,3,1
2017-05-04,PNNT,6,3,7,4,3
2017-05-04,SGMA,5,2,3,6,9
2017-05-04,UGI,7,6,7,8,3
2017-05-04,SGMS,9,2,4,9,4
2017-05-04,SNSS,1,2,4,2,1
2017-05-04,UGP,8,6,7,7,3
2017-05-04,ENB,5,2,5,9,3
2017-05-04,RFP,8,3,6,6,9
2017-05-04,ENG,8,8,7,1,1
2017-05-04,ENR,5,6,6,8,6
2017-05-04,ENS,7,8,7,4,8
2017-05-04,ENT,2,1,2,8,3
2017-05-04,ENV,4,4,2,3,8
2017-05-04,FBRC,8,3,6,1,2
2017-05-04,SMRT,6,5,9,2,1
2017-05-04,CLDX,1,1,4,8,2
2017-05-04,FDC,5,1,6,7,8
2017-05-04,WMAR,3,8,3,7,9
2017-05-04,SEV,9,3,2,1,3
2017-05-04,SEP,3,4,4,3,7
2017-05-04,PODD,6,4,1,9,3
2017-05-04,SEE,7,6,6,8,7
2017-05-04,SEB,7,6,9,7,4
2017-05-04,HAIN,1,6,7,6,3
2017-05-04,SEM,3,2,8,3,7
2017-05-04,NHLD,6,9,3,4,2
2017-05-04,CLH,3,3,4,3,8
2017-05-04,CLD,9,2,9,4,1
2017-05-04,CLF,3,6,7,5,1
2017-05-04,PDS,6,2,3,3,1
2017-05-04,IMO,8,4,9,5,2
2017-05-04,MRVL,5,7,3,4,5
2017-05-04,CLX,7,8,4,7,3
2017-05-04,CLW,3,2,8,5,1
2017-05-04,MRVC,9,7,2,2,5
2017-05-04,CLR,9,1,4,2,1
2017-05-04,CLS,6,5,9,7,2
2017-05-04,INFN,1,5,4,6,2
2017-05-04,ASFI,9,6,4,6,1
2017-05-04,INFY,2,9,7,6,2
2017-05-04,INFU,6,5,7,2,1
2017-05-04,TTWO,7,4,4,6,9
2017-05-04,BPI,4,7,5,2,9
2017-05-04,BPL,7,4,6,8,3
2017-05-04,GEOS,4,3,4,1,5
2017-05-04,KBAL,3,9,8,9,9
2017-05-04,GOL,3,8,2,9,1
2017-05-04,MLR,7,6,8,8,4
2017-05-04,MLP,5,9,7,9,9
2017-05-04,AJG,5,4,5,5,3
2017-05-04,NRG,2,1,7,8,1
2017-05-04,JIVE,4,6,2,9,9
2017-05-04,NRP,9,1,9,7,2
2017-05-04,ZUMZ,3,9,9,4,9
2017-05-04,EMES,9,1,1,1,1
2017-05-04,COWN,3,4,3,2,9
2017-05-04,LTBR,1,2,5,1,6
2017-05-04,ADM,1,4,8,4,1
2017-05-04,CBIO,4,3,5,2,1
2017-05-04,ARIS,2,5,5,9,4
2017-05-04,KNL,5,8,8,9,6
2017-05-04,H,5,4,7,5,8
2017-05-04,EQT,1,2,2,1,2
2017-05-04,HDNG,3,6,2,4,2
2017-05-04,EQM,5,8,5,6,3
2017-05-04,KNX,6,9,6,5,9
2017-05-04,LXU,9,3,5,2,3
2017-05-04,CEMI,7,7,1,1,9
2017-05-04,KALU,3,5,9,7,7
2017-05-04,OPY,3,7,3,3,3
2017-05-04,TMUS,8,4,6,9,7
2017-05-04,ECHO,2,4,5,3,2
2017-05-04,PX,7,6,4,4,8
2017-05-04,DAVE,1,5,4,3,9
2017-05-04,FISV,7,6,3,8,7
2017-05-04,ZBH,9,4,3,4,3
2017-05-04,PSXP,1,3,3,7,7
2017-05-04,WAB,2,6,5,3,8
2017-05-04,UNVR,4,2,6,4,6
2017-05-04,WAT,7,8,4,6,9
2017-05-04,CAAS,4,5,5,2,1
2017-05-04,GROW,7,6,6,3,1
2017-05-04,FNSR,9,5,9,9,1
2017-05-04,AXGN,9,5,1,9,9
2017-05-04,AMED,2,7,4,9,9
2017-05-04,CUTR,5,7,3,9,5
2017-05-04,URBN,9,9,9,5,8
2017-05-04,IX,7,5,8,6,7
2017-05-04,PANW,6,3,3,3,7
2017-05-04,IP,1,4,7,2,8
2017-05-04,IR,5,7,6,7,9
2017-05-04,IT,3,8,3,6,8
2017-05-04,SEDG,7,8,9,9,6
2017-05-04,IO,2,1,3,2,2
2017-05-04,PANL,7,3,9,5,8
2017-05-04,NTCT,7,5,4,3,3
2017-05-04,CTRN,5,8,9,7,9
2017-05-04,CTRL,9,8,5,9,9
2017-05-04,SHLM,6,1,4,2,7
2017-05-04,SHLO,9,1,9,4,2
2017-05-04,CTRP,2,2,2,1,8
2017-05-04,SHLD,6,5,2,1,1
2017-05-04,SXC,8,3,9,7,1
2017-05-04,SXE,9,2,8,3,8
2017-05-04,SXT,6,7,5,7,5
2017-05-04,VIRC,9,7,9,8,9
2017-05-04,VVI,8,3,7,8,5
2017-05-04,VVC,3,4,5,6,4
2017-05-04,PFSW,1,2,5,8,9
2017-05-04,SCVL,5,9,9,4,2
2017-05-04,CRHM,2,6,4,7,1
2017-05-04,JVA,2,8,9,9,6
2017-05-04,PFSI,7,3,4,7,8
2017-05-04,OSIS,3,6,5,2,9
2017-05-04,FINL,6,9,9,4,9
2017-05-04,TRI,3,5,4,6,7
2017-05-04,EYES,1,2,1,4,9
2017-05-04,TRN,6,6,9,3,6
2017-05-04,TRC,4,3,2,1,8
2017-05-04,TRQ,7,5,4,8,1
2017-05-04,TRP,7,1,2,6,5
2017-05-04,TRS,4,3,5,2,9
2017-05-04,TRR,4,2,6,2,4
2017-05-04,TRU,7,4,3,9,8
2017-05-04,TRT,9,6,9,8,5
2017-05-04,HTM,6,3,5,2,4
2017-05-04,LCUT,3,7,9,6,1
2017-05-04,NGD,9,2,4,6,1
2017-05-04,ATSG,5,5,4,6,9
2017-05-04,KTWO,4,5,2,8,8
2017-05-04,ODP,1,6,9,9,7
2017-05-04,DRWI,1,2,2,4,1
2017-05-04,TECH,2,8,2,3,9
2017-05-04,TECD,5,4,4,3,8
2017-05-04,ODC,5,7,7,5,9
2017-05-04,NTIP,8,9,9,9,3
2017-05-04,ELY,7,9,8,9,9
2017-05-04,RDC,6,6,9,8,1
2017-05-04,ELP,9,4,8,3,1
2017-05-04,NTIC,7,7,4,5,2
2017-05-04,LEA,4,6,9,9,5
2017-05-04,SMLP,6,1,4,6,2
2017-05-04,LEE,9,6,9,8,8
2017-05-04,LEG,7,8,6,8,8
2017-05-04,LEN,9,6,9,6,3
2017-05-04,IMOS,2,6,7,3,3
2017-05-04,LEU,9,4,5,7,1
2017-05-04,NLNK,2,5,1,5,1
2017-05-04,MXIM,7,9,5,4,5
2017-05-04,SGY,9,6,1,4,2
2017-05-04,SGU,7,8,8,9,4
2017-05-04,SAUC,1,6,4,9,9
2017-05-04,EIGI,1,1,4,7,3
2017-05-04,SGM,2,2,6,4,5
2017-05-04,SGA,5,8,8,6,3
2017-05-04,SGC,3,8,9,8,6
2017-05-04,CNS,9,9,6,6,6
2017-05-04,CNP,5,2,6,6,5
2017-05-04,CNQ,8,2,3,1,2
2017-05-04,CWST,7,1,5,9,8
2017-05-04,ICE,9,3,3,7,6
2017-05-04,ICD,8,2,2,2,1
2017-05-04,CNC,9,6,9,8,9
2017-05-04,CNK,6,6,5,6,4
2017-05-04,CNI,3,7,4,7,4
2017-05-04,PFE,9,7,5,3,3
2017-05-04,MRTN,6,8,8,6,8
2017-05-04,BMI,2,9,5,7,8
2017-05-04,PRIM,1,4,7,2,3
2017-05-04,CIVI,5,3,7,8,5
2017-05-04,RLGT,3,6,6,4,9
2017-05-04,GIS,7,7,5,5,2
2017-05-04,ONVO,1,2,1,3,1
2017-05-04,MJN,9,9,3,5,3
2017-05-04,GIB,3,8,8,9,5
2017-05-04,GIL,2,7,7,8,8
2017-05-04,AHC,3,9,4,4,8
2017-05-04,NPO,3,1,3,2,8
2017-05-04,NPK,3,9,9,6,8
2017-05-04,MNRO,1,7,6,7,5
2017-05-04,RICK,6,6,6,5,2
2017-05-04,ITRN,8,9,6,6,3
2017-05-04,RICE,9,1,2,7,1
2017-05-04,IZEA,2,6,2,8,2
2017-05-04,CDK,3,8,3,7,3
2017-05-04,AROC,8,1,7,3,2
2017-05-04,BABA,5,8,2,6,9
2017-05-04,OOMA,9,7,2,6,9
2017-05-04,LOAN,8,5,6,7,2
2017-05-04,BABY,6,8,7,7,1
2017-05-04,WAGE,8,5,3,3,8
2017-05-04,LNT,5,4,4,4,3
2017-05-04,LZB,2,9,9,9,9
2017-05-04,ABTL,1,7,8,5,9
2017-05-04,MNTA,4,4,2,9,9
2017-05-04,CNCE,4,5,1,1,1
2017-05-04,CNCO,7,7,8,7,1
2017-05-04,SPIL,3,6,3,5,4
2017-05-04,TXMD,1,3,1,3,1
2017-05-04,CBMX,1,6,7,9,1
2017-05-04,PBPB,3,9,7,9,1
2017-05-04,DATA,6,7,2,2,9
2017-05-04,MMSI,6,4,3,5,9
2017-05-04,GRIF,6,2,3,6,2
2017-05-04,WCN,1,3,3,7,8
2017-05-04,TWMC,2,6,7,2,9
2017-05-04,LINC,1,3,5,5,7
2017-05-04,PCRX,5,6,2,7,3
2017-05-04,NLSN,9,5,5,5,2
2017-05-04,NLST,1,6,1,8,9
2017-05-04,SAJA,3,7,3,2,9
2017-05-04,LAYN,5,3,4,3,1
2017-05-04,ADSK,1,4,1,1,9
2017-05-04,PPHM,1,2,1,8,2
2017-05-04,NETE,1,2,2,9,2
2017-05-04,GORO,2,8,6,4,1
2017-05-04,BBGI,8,5,7,8,2
2017-05-04,TXRH,2,7,5,8,9
2017-05-04,LBIX,9,5,4,2,9
2017-05-04,BITA,9,3,3,2,9
2017-05-04,GEVO,9,1,7,9,3
2017-05-04,QTM,7,7,2,6,9
2017-05-04,TLP,5,1,5,5,2
2017-05-04,GTE,8,1,3,1,2
2017-05-04,GTN,2,4,8,8,2
2017-05-04,GTS,3,3,8,2,4
2017-05-04,GTT,7,2,3,9,9
2017-05-04,TLF,5,9,9,5,9
2017-05-04,TLK,9,9,6,7,7
2017-05-04,HNRG,7,3,9,3,1
2017-05-04,HVT,1,8,9,5,8
2017-05-04,TSLA,2,1,1,5,6
2017-05-04,TSLX,7,3,4,6,4
2017-05-04,TEAR,9,6,1,9,1
2017-05-04,ESIO,3,5,3,7,7
2017-05-04,ARRS,5,4,6,5,3
2017-05-04,ARRY,9,5,1,5,1
2017-05-04,XOMA,9,4,1,1,3
2017-05-04,ALXN,9,8,2,6,9
2017-05-04,RBC,2,5,8,8,7
2017-05-04,RBA,6,8,3,3,4
2017-05-04,LGL,6,6,3,9,1
2017-05-04,IMMY,1,2,1,8,9
2017-05-04,IMMR,5,8,4,2,8
2017-05-04,IMMU,1,3,1,1,1
2017-05-04,ROLL,3,7,4,4,7
2017-05-04,JP,1,9,3,3,4
2017-05-04,JE,4,7,9,7,2
2017-05-04,BA,7,6,7,4,7
2017-05-04,FRAN,2,9,9,6,8
2017-05-04,IAG,9,3,8,4,1
2017-05-04,IAC,5,7,3,3,9
2017-05-04,OFS,6,6,5,7,5
2017-05-04,BGCP,2,7,3,3,6
2017-05-04,VALU,7,9,5,7,3
2017-05-04,BT,1,3,8,4,4
2017-05-04,PHI,1,6,6,3,6
2017-05-04,PHH,1,2,4,1,6
2017-05-04,PHG,4,6,7,6,9
2017-05-04,PHX,4,2,2,1,3
2017-05-04,TIF,9,9,7,7,3
2017-05-04,BX,3,7,3,5,7
2017-05-04,SNPS,5,8,4,7,7
2017-05-04,MHO,6,5,9,6,9
2017-05-04,MHK,4,7,6,9,5
2017-05-04,MHH,8,8,9,4,6
2017-05-04,SIRI,5,5,4,8,2
2017-05-04,IBKR,1,4,4,7,7
2017-05-04,ANF,4,8,3,2,9
2017-05-04,NVS,4,7,4,2,7
2017-05-04,NVR,2,9,8,8,5
2017-05-04,RNWK,4,6,2,6,8
2017-05-04,ANW,3,3,9,8,1
2017-05-04,NVO,1,9,5,7,9
2017-05-04,NADL,9,1,8,5,9
2017-05-04,ATHM,2,9,6,5,8
2017-05-04,EMAN,3,4,1,2,4
2017-05-04,ARMK,6,2,6,8,4
2017-05-04,LOCO,2,5,5,4,8
2017-05-04,KRO,8,4,5,9,7
2017-05-04,KRA,9,1,6,9,9
2017-05-04,INO,4,3,1,3,5
2017-05-04,OKE,4,3,7,7,2
2017-05-04,GOOG,9,9,4,7,9
2017-05-04,CNMD,2,4,3,2,9
2017-05-04,SPOK,3,9,9,2,2
2017-05-04,ICPT,6,1,1,7,4
2017-05-04,ANIK,3,9,6,7,8
2017-05-04,ANIP,5,7,3,5,6
2017-05-04,WCG,8,7,9,8,9
2017-05-04,WMS,4,4,6,8,8
2017-05-04,AMGN,9,8,7,7,4
2017-05-04,WMK,6,7,8,6,3
2017-05-04,WMB,4,1,3,5,7
2017-05-04,NXST,4,7,6,8,2
2017-05-04,TWOU,8,7,1,9,9
2017-05-04,DFRG,1,7,6,7,3
2017-05-04,PCTI,7,8,6,2,9
2017-05-04,PCTY,3,2,2,6,8
2017-05-04,GLW,9,8,8,6,8
2017-05-04,MVIS,1,3,1,4,1
2017-05-04,WDAY,6,2,1,7,9
2017-05-04,MGCD,8,8,6,2,7
2017-05-04,CYRN,8,5,2,2,2
2017-05-04,SALE,4,8,8,2,9
2017-05-04,PHII,8,3,6,1,2
2017-05-04,CYRX,1,3,1,8,9
2017-05-04,LAWS,2,6,5,6,8
2017-05-04,ZGNX,1,3,1,1,8
2017-05-04,REIS,1,8,4,3,7
2017-05-04,EEI,5,9,9,6,4
2017-05-04,AFAM,2,5,5,6,7
2017-05-04,NMRX,2,3,2,2,3
2017-05-04,QSII,1,6,5,2,2
2017-05-04,TNP,1,2,6,6,2
2017-05-04,GVA,4,4,6,8,8
2017-05-04,TNC,6,9,6,7,7
2017-05-04,GVP,4,5,9,9,1
2017-05-04,TNH,2,9,8,2,2
2017-05-04,TNK,1,4,9,7,3
2017-05-04,HHS,8,1,9,2,6
2017-05-04,NKE,9,9,5,8,3
2017-05-04,HEES,2,5,8,5,1
2017-05-04,MANT,7,6,8,7,9
2017-05-04,MANU,2,5,4,5,2
2017-05-04,UAL,2,8,8,8,8
2017-05-04,UAN,8,2,5,1,6
2017-05-04,P,7,5,2,2,1
2017-05-04,FOXA,7,8,7,5,1
2017-05-04,FOXF,6,8,3,6,8
2017-05-04,OTIV,3,4,2,9,1
2017-05-04,LAZ,3,9,8,8,3
2017-05-04,DTE,7,3,5,5,6
2017-05-04,CODI,6,5,7,2,3
2017-05-04,WMGI,7,1,1,8,2
2017-05-04,DTV,4,8,9,5,3
2017-05-04,PEIX,9,2,9,6,1
2017-05-04,CYOU,8,9,2,2,9
2017-05-04,IGC,5,1,1,1,1
2017-05-04,CBB,6,1,5,4,7
2017-05-04,CBG,9,7,6,4,9
2017-05-04,CBD,9,7,9,2,9
2017-05-04,CBK,1,7,6,2,1
2017-05-04,CBI,6,1,7,4,3
2017-05-04,PJC,5,4,7,3,4
2017-05-04,CBS,7,6,5,3,1
2017-05-04,MMC,9,9,5,8,5
2017-05-04,CBT,7,4,8,8,1
2017-05-04,CBZ,6,3,7,5,9
2017-05-04,NUAN,3,2,4,8,8
2017-05-04,SCCO,2,6,3,3,2
2017-05-04,TTMI,4,3,8,8,2
2017-05-04,TICC,7,4,8,4,3
2017-05-04,BZH,9,6,4,5,7
2017-05-04,SITO,2,5,2,9,9
2017-05-04,SMG,6,7,6,8,2
2017-05-04,MVC,7,5,4,5,6
2017-05-04,GRVY,7,7,3,9,1
2017-05-04,ALN,9,5,4,3,2
2017-05-04,NTZ,5,6,7,8,5
2017-05-04,ALJ,3,2,5,1,6
2017-05-04,ALK,1,8,8,6,2
2017-05-04,RTIX,6,5,4,6,9
2017-05-04,NTP,8,4,3,8,9
2017-05-04,ALE,6,4,5,7,5
2017-05-04,ALB,9,7,5,6,6
2017-05-04,NTL,2,9,8,5,8
2017-05-04,NTN,8,4,3,5,7
2017-05-04,ALV,3,7,8,6,7
2017-05-04,ALR,2,3,2,4,9
2017-05-04,ADBE,9,8,2,9,7
2017-05-04,MDXG,2,9,2,8,9
2017-05-04,ERN,9,1,1,3,1
2017-05-04,HBIO,2,5,5,3,1
2017-05-04,ISSC,6,8,8,9,9
2017-05-04,SLGN,2,4,6,4,7
2017-05-04,FTNT,6,7,3,7,8
2017-05-04,ADES,4,7,3,9,6
2017-05-04,NYNY,6,3,1,4,7
2017-05-04,BEBE,9,8,5,8,7
2017-05-04,EVRI,8,1,5,3,9
2017-05-04,DNOW,8,4,6,2,7
2017-05-04,RMCF,5,9,7,7,9
2017-05-04,MDCA,7,2,4,7,2
2017-05-04,NVDQ,3,6,1,4,2
2017-05-04,NVDA,9,9,2,9,7
2017-05-04,CCUR,9,9,5,2,9
2017-05-04,WOR,7,7,9,7,2
2017-05-04,LUNA,8,8,5,9,1
2017-05-04,JACK,3,7,4,9,6
2017-05-04,CMCO,5,5,8,4,5
2017-05-04,MASI,8,9,7,9,9
2017-05-04,CSTE,3,9,7,4,9
2017-05-04,CDTI,1,3,2,1,9
2017-05-04,BLUE,1,2,1,1,3
2017-05-04,KE,6,6,9,4,5
2017-05-04,KO,7,8,3,4,6
2017-05-04,KN,5,3,4,4,2
2017-05-04,KS,1,4,7,3,1
2017-05-04,KR,1,6,8,6,3
2017-05-04,KW,3,3,2,7,1
2017-05-04,VSTO,4,3,6,7,6
2017-05-04,ZOES,2,6,4,9,9
2017-05-04,SANW,5,3,4,8,7
2017-05-04,CYTK,5,7,4,9,9
2017-05-04,MGEE,6,7,4,6,3
2017-05-04,MGPI,9,7,3,9,2
2017-05-04,CYTX,1,1,1,2,1
2017-05-04,SAND,7,5,6,7,1
2017-05-04,CYTR,1,1,5,3,9
2017-05-04,BSFT,6,5,4,7,2
2017-05-04,CRNT,7,7,9,9,8
2017-05-04,UHAL,2,6,7,7,5
2017-05-04,USPH,5,8,5,5,8
2017-05-04,BGC,7,1,7,2,4
2017-05-04,BGG,5,4,7,7,9
2017-05-04,BGI,7,4,9,8,2
2017-05-04,BGS,6,3,6,5,6
2017-05-04,ECOM,5,6,3,9,8
2017-05-04,GPL,2,4,8,9,1
2017-05-04,GPN,7,5,2,3,7
2017-05-04,GPI,2,5,9,8,3
2017-05-04,GPK,5,3,7,6,8
2017-05-04,THS,4,1,5,2,6
2017-05-04,THR,3,8,4,2,5
2017-05-04,GPC,3,8,8,4,6
2017-05-04,THO,4,8,8,8,6
2017-05-04,GPX,2,7,7,4,8
2017-05-04,GPS,8,9,9,3,9
2017-05-04,KODK,9,7,2,6,1
2017-05-04,TAIT,9,3,7,1,3
2017-05-04,SYNL,8,2,7,2,8
2017-05-04,SYNC,9,5,3,3,1
2017-05-04,SYNA,7,8,7,2,9
2017-05-04,FDP,8,5,9,9,1
2017-05-04,FDS,2,9,4,6,5
2017-05-04,FDX,1,7,6,6,2
2017-05-04,SYNT,3,9,4,4,8
2017-05-04,AEGN,2,4,8,5,2
2017-05-04,SGEN,7,7,1,4,3
2017-05-04,EFX,9,5,3,6,4
2017-05-04,STRP,1,3,1,3,9
2017-05-04,RNG,3,6,2,9,9
2017-05-04,STRT,7,7,8,3,9
2017-05-04,STRM,5,3,2,8,9
2017-05-04,STRL,4,2,7,9,9
2017-05-04,STRA,3,9,6,6,9
2017-05-04,LCI,4,5,6,6,8
2017-05-04,ABCD,5,5,7,9,8
2017-05-04,DVN,1,3,3,6,1
2017-05-04,PEGI,6,1,4,2,9
2017-05-04,DVD,3,7,9,4,7
2017-05-04,ABCO,2,4,3,8,9
2017-05-04,DVA,7,5,8,7,3
2017-05-04,PEGA,5,9,2,4,8
2017-05-04,IEX,5,8,4,4,9
2017-05-04,FRED,2,5,3,1,9
2017-05-04,IEC,7,3,9,9,3
2017-05-04,CDE,9,3,8,9,3
2017-05-04,PLT,8,8,7,3,8
2017-05-04,CDI,2,6,6,3,2
2017-05-04,MORN,2,9,5,4,2
2017-05-04,ASNA,7,3,8,7,3
2017-05-04,CBMG,1,2,1,4,2
2017-05-04,PRSS,9,7,7,2,1
2017-05-04,MNTX,8,2,3,1,9
2017-05-04,PRSC,8,6,7,7,6
2017-05-04,BXC,9,7,9,9,9
2017-05-04,BXE,1,1,7,1,2
2017-05-04,TTOO,1,1,1,6,1
2017-05-04,NEWT,8,5,3,2,3
2017-05-04,MTZ,7,3,7,6,9
2017-05-04,MTX,7,5,7,8,7
2017-05-04,GRPN,3,5,4,2,1
2017-05-04,MTW,8,2,2,1,3
2017-05-04,NHTC,9,9,9,9,5
2017-05-04,MTH,7,4,7,4,7
2017-05-04,MTN,4,4,3,9,7
2017-05-04,MTL,9,4,8,9,9
2017-05-04,FSIC,6,7,8,4,4
2017-05-04,HLIT,9,2,2,2,1
2017-05-04,MTD,5,8,2,8,8
2017-05-04,ARW,3,4,9,6,4
2017-05-04,ARC,9,4,7,2,2
2017-05-04,CPSH,1,7,4,1,8
2017-05-04,CPSI,1,7,3,3,3
2017-05-04,NCIT,2,8,9,6,9
2017-05-04,BORN,2,4,6,1,7
2017-05-04,CPST,1,3,7,4,2
2017-05-04,CPSS,7,5,9,6,9
2017-05-04,EMMS,9,3,9,6,8
2017-05-04,TPX,5,7,7,9,7
2017-05-04,TLYS,5,9,9,5,9
2017-05-04,T,9,4,7,3,1
2017-05-04,LOGM,8,7,2,7,9
2017-05-04,LOGI,8,9,5,7,8
2017-05-04,VRSN,7,9,4,7,7
2017-05-04,VRSK,7,8,3,6,2
2017-05-04,OFIX,3,9,5,9,8
2017-05-04,GLUU,8,5,2,1,9
2017-05-04,CR,8,7,6,3,8
2017-05-04,CNIT,1,1,1,7,7
2017-05-04,CRUS,9,9,7,6,6
2017-05-04,SPCB,5,7,2,1,2
2017-05-04,NVFY,5,6,5,1,3
2017-05-04,BIOC,1,1,1,9,1
2017-05-04,BIOA,1,1,1,7,7
2017-05-04,BIOL,7,5,2,5,2
2017-05-04,BIOS,9,3,2,9,9
2017-05-04,SKYW,8,3,3,2,9
2017-05-04,LULU,5,9,6,6,8
2017-05-04,WIN,9,1,4,2,3
2017-05-04,WIT,1,8,7,4,3
2017-05-04,TATT,6,7,8,2,2
2017-05-04,WIX,9,7,1,9,4
2017-05-04,MTSI,2,3,2,4,1
2017-05-04,MTSL,8,6,2,2,7
2017-05-04,MTSC,8,5,6,2,1
2017-05-04,YORW,4,5,3,4,3
2017-05-04,TNDM,6,4,1,8,1
2017-05-04,PLAY,4,7,4,9,9
2017-05-04,PLAB,7,7,9,6,8
2017-05-04,QDEL,7,5,4,4,9
